{"status":true,"items":[{"modified":{"time":"2024-01-16T12:49:31.000Z"},"_id":"65a5d8637074f826ccde14e9","name":"Liệt Ái","slug":"liet-ai","origin_name":"Passionate Love","thumb_url":"liet-ai-thumb.jpg","poster_url":"liet-ai-poster.jpg","year":2023},{"modified":{"time":"2024-01-16T12:49:08.000Z"},"_id":"651fa568fe8e2316c08d3646","name":"Hoang Dã","slug":"hoang-da","origin_name":"Yabani","thumb_url":"hoang-da-thumb.jpg","poster_url":"hoang-da-poster.jpg","year":2023},{"modified":{"time":"2024-01-16T12:48:47.000Z"},"_id":"65530d70aa7d07ce5c84d236","name":"Giấu Em","slug":"giau-em","origin_name":"Sakla Beni","thumb_url":"giau-em-thumb.jpg","poster_url":"giau-em-poster.jpg","year":2023},{"modified":{"time":"2024-01-16T12:48:30.000Z"},"_id":"6549cb4caa7d07ce5c74d354","name":"Không Một Ai Biết","slug":"khong-mot-ai-biet-tnk","origin_name":"Kimse Bilmez","thumb_url":"khong-mot-ai-biet-tnk-thumb.jpg","poster_url":"khong-mot-ai-biet-tnk-poster.jpg","year":2019},{"modified":{"time":"2024-01-16T12:48:14.000Z"},"_id":"6404b7820fc1635bd467951c","name":"Cầm Tù","slug":"cam-tu","origin_name":"Esaret","thumb_url":"cam-tu-thumb.jpg","poster_url":"cam-tu-poster.jpg","year":2022},{"modified":{"time":"2024-01-16T12:47:42.000Z"},"_id":"655c6638aa7d07ce5c96da42","name":"Tiếng Hót Chim Hồng Tước","slug":"tieng-hot-chim-hong-tuoc","origin_name":"Calikusu","thumb_url":"tieng-hot-chim-hong-tuoc-thumb.jpg","poster_url":"tieng-hot-chim-hong-tuoc-poster.jpg","year":2013},{"modified":{"time":"2024-01-16T11:33:39.000Z"},"_id":"659c0e017074f826ccc1c0f7","name":"Nguyệt Đao Dị Giới (Phần 2)","slug":"nguyet-dao-di-gioi-phan-2","origin_name":"Tsukimichi -Moonlit Fantasy- Season 2 / Tsuki ga Michibiku 2","thumb_url":"nguyet-dao-di-gioi-phan-2-thumb.jpg","poster_url":"nguyet-dao-di-gioi-phan-2-poster.jpg","year":2024},{"modified":{"time":"2024-01-16T11:28:51.000Z"},"_id":"659cca5431d8a2b99e95f349","name":"Hướng Về Em","slug":"huong-ve-em","origin_name":"All of Her","thumb_url":"huong-ve-em-thumb.jpg","poster_url":"huong-ve-em-poster.jpg","year":2024},{"modified":{"time":"2024-01-16T11:23:35.000Z"},"_id":"65a0caf131d8a2b99ea0d710","name":"Hoa Thanh Ca","slug":"hoa-thanh-ca","origin_name":"Different Princess","thumb_url":"hoa-thanh-ca-thumb.jpg","poster_url":"hoa-thanh-ca-poster.jpg","year":2024},{"modified":{"time":"2024-01-16T09:02:20.000Z"},"_id":"65a5e1b27074f826ccde27fa","name":"Time the Series","slug":"time-the-series","origin_name":"Time the Series","thumb_url":"time-the-series-thumb.jpg","poster_url":"time-the-series-poster.jpg","year":2024},{"modified":{"time":"2024-01-16T08:57:23.000Z"},"_id":"658d2bf4efed8b7739f08791","name":"Tình Ca Ảo Mộng","slug":"tinh-ca-ao-mong","origin_name":"Love Song For Illusion","thumb_url":"tinh-ca-ao-mong-thumb.jpg","poster_url":"tinh-ca-ao-mong-poster.jpg","year":2024},{"modified":{"time":"2024-01-16T00:33:26.000Z"},"_id":"6571b4bc2f36c295ed0954bf","name":"Cô Đi Mà Lấy Chồng Tôi","slug":"co-di-ma-lay-chong-toi","origin_name":"Marry My Husband","thumb_url":"co-di-ma-lay-chong-toi-thumb.jpg","poster_url":"co-di-ma-lay-chong-toi-poster.jpg","year":2024},{"modified":{"time":"2024-01-15T23:33:30.000Z"},"_id":"658c6451efed8b7739e9766c","name":"Án mạng nơi Tận cùng Thế giới","slug":"a-murder-at-the-end-of-the-world","origin_name":"A Murder at the End of the World","thumb_url":"a-murder-at-the-end-of-the-world-thumb.jpg","poster_url":"a-murder-at-the-end-of-the-world-poster.jpg","year":2023},{"modified":{"time":"2024-01-15T22:28:23.000Z"},"_id":"65a54f157074f826ccd67a28","name":"Jiang Hu: The Triad Zone","slug":"jiang-hu-the-triad-zone","origin_name":"Jiang Hu: The Triad Zone","thumb_url":"jiang-hu-the-triad-zone-thumb.jpg","poster_url":"jiang-hu-the-triad-zone-poster.jpg","year":2000},{"modified":{"time":"2024-01-15T22:27:29.000Z"},"_id":"65a54edf7074f826ccd676dd","name":"Killing Them Softly","slug":"killing-them-softly","origin_name":"Killing Them Softly","thumb_url":"killing-them-softly-thumb.jpg","poster_url":"killing-them-softly-poster.jpg","year":2012},{"modified":{"time":"2024-01-15T22:26:40.000Z"},"_id":"65a5158f31d8a2b99ea79f4a","name":"Quigley Down Under","slug":"quigley-down-under","origin_name":"Quigley Down Under","thumb_url":"quigley-down-under-thumb.jpg","poster_url":"quigley-down-under-poster.jpg","year":1990},{"modified":{"time":"2024-01-15T22:19:33.000Z"},"_id":"659565cb7074f826ccaec8e5","name":"Anh Cũng Có Ngày Này","slug":"anh-cung-co-ngay-nay","origin_name":"My Boss","thumb_url":"anh-cung-co-ngay-nay-thumb.jpg","poster_url":"anh-cung-co-ngay-nay-poster.jpg","year":2024},{"modified":{"time":"2024-01-15T20:23:31.000Z"},"_id":"65a0f3d17074f826cccd7c43","name":"Chàng Trai Nuốt Chửng Vũ Trụ","slug":"boy-swallows-universe","origin_name":"Boy Swallows Universe","thumb_url":"boy-swallows-universe-thumb.jpg","poster_url":"boy-swallows-universe-poster.jpg","year":2024},{"modified":{"time":"2024-01-15T20:16:58.000Z"},"_id":"65991e0e7074f826ccbde32e","name":"Người Phiên Dịch Của Chúng Tôi","slug":"nguoi-phien-dich-cua-chung-toi","origin_name":"Our Interpreter","thumb_url":"nguoi-phien-dich-cua-chung-toi-thumb.jpg","poster_url":"nguoi-phien-dich-cua-chung-toi-poster.jpg","year":2024},{"modified":{"time":"2024-01-15T20:11:19.000Z"},"_id":"65a4a5a631d8a2b99ea5d2f7","name":"Đại Giang Đại Hà (Phần 3)","slug":"like-a-flowing-river","origin_name":"Like a Flowing River","thumb_url":"like-a-flowing-river-thumb.jpg","poster_url":"like-a-flowing-river-poster.jpg","year":2024},{"modified":{"time":"2024-01-15T19:50:36.000Z"},"_id":"65a52a1c31d8a2b99ea8ad44","name":"Đá Vàng (Phần 2)","slug":"da-vang-phan-2","origin_name":"Yellowstone (Season 2)","thumb_url":"da-vang-phan-2-thumb.jpg","poster_url":"da-vang-phan-2-poster.jpg","year":2019},{"modified":{"time":"2024-01-15T19:49:41.000Z"},"_id":"65a529e531d8a2b99ea8a8d7","name":"Đá Vàng (Phần 1)","slug":"da-vang-phan-1","origin_name":"Yellowstone (Season 1)","thumb_url":"da-vang-phan-1-thumb.jpg","poster_url":"da-vang-phan-1-poster.jpg","year":2018},{"modified":{"time":"2024-01-15T19:32:40.000Z"},"_id":"65a523e07074f826ccd489cd","name":"Băng Qua Biển Giận Dữ","slug":"bang-qua-bien-gian-du","origin_name":"Across the Furious Sea","thumb_url":"bang-qua-bien-gian-du-thumb.jpg","poster_url":"bang-qua-bien-gian-du-poster.jpg","year":2023},{"modified":{"time":"2024-01-15T18:44:31.000Z"},"_id":"65a519d17074f826ccd40508","name":"maboroshi","slug":"maboroshi","origin_name":"maboroshi","thumb_url":"maboroshi-thumb.jpg","poster_url":"maboroshi-poster.jpg","year":2023}],"pathImage":"https://img.ophim10.cc/uploads/movies/","pagination":{"totalItems":25189,"totalItemsPerPage":24,"currentPage":1,"totalPages":1050}}