{"status":true,"items":[{"modified":{"time":"2023-12-15T19:54:55.000Z"},"_id":"657c4c3cefed8b7739a9abde","name":"Bewitched","slug":"bewitched","origin_name":"Bewitched","thumb_url":"bewitched-thumb.jpg","poster_url":"bewitched-poster.jpg","year":1981},{"modified":{"time":"2023-12-15T19:48:16.000Z"},"_id":"657c4b0e2f36c295ed297aa9","name":"Kỳ Nghỉ Đáng Nhớ","slug":"ky-nghi-dang-nho","origin_name":"Bilitis","thumb_url":"ky-nghi-dang-nho-thumb.jpg","poster_url":"ky-nghi-dang-nho-poster.jpg","year":1977},{"modified":{"time":"2023-12-15T19:47:17.000Z"},"_id":"657c4ad3efed8b7739a9a1a4","name":"Black Magic 2","slug":"black-magic-2","origin_name":"Black Magic 2","thumb_url":"black-magic-2-thumb.jpg","poster_url":"black-magic-2-poster.jpg","year":1976},{"modified":{"time":"2023-12-15T19:42:46.000Z"},"_id":"657c49c52f36c295ed296fc1","name":"Đại Sự Kiện","slug":"dai-su-kien","origin_name":"Breaking News","thumb_url":"dai-su-kien-thumb.jpg","poster_url":"dai-su-kien-poster.jpg","year":2004},{"modified":{"time":"2023-12-15T19:41:55.000Z"},"_id":"657c4991efed8b7739a99749","name":"Gái Bar Nổi Loạn","slug":"gai-bar-noi-loan","origin_name":"Coyote Ugly","thumb_url":"gai-bar-noi-loan-thumb.jpg","poster_url":"gai-bar-noi-loan-poster.jpg","year":2000},{"modified":{"time":"2023-12-15T18:27:12.000Z"},"_id":"655489cb03f63c57cb95ad6f","name":"Trò Chơi Sinh Tử","slug":"deaths-game","origin_name":"Death's Game","thumb_url":"deaths-game-thumb.jpg","poster_url":"deaths-game-poster.jpg","year":2023},{"modified":{"time":"2023-12-15T18:05:44.000Z"},"_id":"657c1ef5efed8b7739a8f335","name":"Carol và ngày tận thế","slug":"carol-va-ngay-tan-the","origin_name":"Carol & the End of the World","thumb_url":"carol-va-ngay-tan-the-thumb.jpg","poster_url":"carol-va-ngay-tan-the-poster.jpg","year":2023},{"modified":{"time":"2023-12-15T17:31:21.000Z"},"_id":"657c2245efed8b7739a8fe4b","name":"Phi đội gà bay 2: Âm mưu gà nugget","slug":"phi-doi-ga-bay-2-am-muu-ga-nugget","origin_name":"Chicken Run: Dawn of the Nugget","thumb_url":"phi-doi-ga-bay-2-am-muu-ga-nugget-thumb.jpg","poster_url":"phi-doi-ga-bay-2-am-muu-ga-nugget-poster.jpg","year":2023},{"modified":{"time":"2023-12-15T17:13:29.000Z"},"_id":"657c1d6b2f36c295ed28c3d5","name":"Kế Hoạch Bảo Vệ Gia Đình","slug":"ke-hoach-bao-ve-gia-dinh","origin_name":"The Family Plan","thumb_url":"ke-hoach-bao-ve-gia-dinh-thumb.jpg","poster_url":"ke-hoach-bao-ve-gia-dinh-poster.jpg","year":2023},{"modified":{"time":"2023-12-15T16:15:07.000Z"},"_id":"657c165b2f36c295ed28960e","name":"Đôi Cánh Tham Vọng (Phần 2)","slug":"doi-canh-tham-vong-phan-2","origin_name":"As the Crow Flies Season 2","thumb_url":"doi-canh-tham-vong-phan-2-thumb.jpg","poster_url":"doi-canh-tham-vong-phan-2-poster.jpg","year":2023},{"modified":{"time":"2023-12-15T13:21:33.000Z"},"_id":"6547626baa7d07ce5c7054ee","name":"Câu Chuyện Lúc Nửa Đêm","slug":"cau-chuyen-luc-nua-dem-2023","origin_name":"Goosebumps","thumb_url":"cau-chuyen-luc-nua-dem-2023-thumb.jpg","poster_url":"cau-chuyen-luc-nua-dem-2023-poster.jpg","year":2023},{"modified":{"time":"2023-12-15T11:34:26.000Z"},"_id":"656f0763aa7d07ce5cb9f9b2","name":"Tiểu Nương Tử Đương Gia","slug":"tieu-nuong-tu-duong-gia","origin_name":"Invincible Stepmother","thumb_url":"tieu-nuong-tu-duong-gia-thumb.jpg","poster_url":"tieu-nuong-tu-duong-gia-poster.jpg","year":2023},{"modified":{"time":"2023-12-14T22:40:26.000Z"},"_id":"65795600efed8b7739a29591","name":"Hành trình U Linh Giới","slug":"hanh-trinh-u-linh-gioi","origin_name":"Yu Yu Hakusho","thumb_url":"hanh-trinh-u-linh-gioi-thumb.jpg","poster_url":"hanh-trinh-u-linh-gioi-poster.jpg","year":2023},{"modified":{"time":"2023-12-14T22:13:53.000Z"},"_id":"657b1bafefed8b7739a6ce0b","name":"Tình Sử Angelique","slug":"tinh-su-angelique","origin_name":"Angelique","thumb_url":"tinh-su-angelique-thumb.jpg","poster_url":"tinh-su-angelique-poster.jpg","year":2013},{"modified":{"time":"2023-12-14T22:12:50.000Z"},"_id":"657b1b712f36c295ed26a432","name":"Cuộc Gặp Gỡ ở Shinjuku ","slug":"cuoc-gap-go-o-shinjuku","origin_name":"Brief Encounter In Shinjuku","thumb_url":"cuoc-gap-go-o-shinjuku-thumb.jpg","poster_url":"cuoc-gap-go-o-shinjuku-poster.jpg","year":1990},{"modified":{"time":"2023-12-14T22:11:48.000Z"},"_id":"657b1b322f36c295ed26a18e","name":"Căn Nhà Khoái Lạc ","slug":"can-nha-khoai-lac","origin_name":"House of Pleasures","thumb_url":"can-nha-khoai-lac-thumb.jpg","poster_url":"can-nha-khoai-lac-poster.jpg","year":2011},{"modified":{"time":"2023-12-14T22:10:17.000Z"},"_id":"657b1ad8efed8b7739a6c50a","name":"Công Phu Đầu Bếp","slug":"cong-phu-dau-bep","origin_name":"Công Phu Đầu Bếp","thumb_url":"cong-phu-dau-bep-thumb.jpg","poster_url":"cong-phu-dau-bep-poster.jpg","year":2009},{"modified":{"time":"2023-12-14T22:07:01.000Z"},"_id":"657b1a13efed8b7739a6bee1","name":"Bánh Bao Nhân Thịt Người ","slug":"banh-bao-nhan-thit-nguoi","origin_name":"The Untold Story","thumb_url":"banh-bao-nhan-thit-nguoi-thumb.jpg","poster_url":"banh-bao-nhan-thit-nguoi-poster.jpg","year":1993},{"modified":{"time":"2023-12-14T22:02:59.000Z"},"_id":"657b191fefed8b7739a6b868","name":"Đả Công Hoàng Đế ","slug":"da-cong-hoang-de","origin_name":"Working Class ","thumb_url":"da-cong-hoang-de-thumb.jpg","poster_url":"da-cong-hoang-de-poster.jpg","year":1985},{"modified":{"time":"2023-12-14T20:14:03.000Z"},"_id":"655620c503f63c57cb98c845","name":"Hoàng Quyền (Phần 6)","slug":"hoang-quyen-phan-6","origin_name":"The Crown Season 6","thumb_url":"hoang-quyen-phan-6-thumb.jpg","poster_url":"hoang-quyen-phan-6-poster.jpg","year":2023},{"modified":{"time":"2023-12-14T18:38:33.000Z"},"_id":"64b11a8b953e2ecd7e0dda49","name":"Đấu Trường Sinh Tử: Khúc Hát Của Chim Ca & Rắn Độc","slug":"dau-truong-sinh-tu-khuc-hat-cua-chim-ca-and-ran-doc","origin_name":"The Hunger Games: The Ballad of Songbirds & Snakes","thumb_url":"dau-truong-sinh-tu-khuc-hat-cua-chim-ca-and-ran-doc-thumb.jpg","poster_url":"dau-truong-sinh-tu-khuc-hat-cua-chim-ca-and-ran-doc-poster.jpg","year":2023},{"modified":{"time":"2023-12-14T15:25:37.000Z"},"_id":"65797362efed8b7739a2fbc3","name":"Những Kỷ Nguyên Của Taylor Swift","slug":"nhung-ky-nguyen-cua-taylor-swift","origin_name":"TAYLOR SWIFT | THE ERAS TOUR","thumb_url":"nhung-ky-nguyen-cua-taylor-swift-thumb.jpg","poster_url":"nhung-ky-nguyen-cua-taylor-swift-poster.jpg","year":2023},{"modified":{"time":"2023-12-14T10:33:46.000Z"},"_id":"62287e76eb35da19972e175d","name":"Ô long thích khách","origin_name":"Assassin in Dream","thumb_url":"o-long-thich-khach-thumb.jpg","slug":"o-long-thich-khach","year":2018,"poster_url":"o-long-thich-khach-poster.jpg"},{"modified":{"time":"2023-12-14T10:33:35.000Z"},"_id":"62287e69eb35da19972e174c","name":"Quyết tâm của chó","origin_name":"A Dog&#x27;&#x27;s Life","thumb_url":"quyet-tam-cua-cho-thumb.jpg","slug":"quyet-tam-cua-cho","year":2016,"poster_url":"quyet-tam-cua-cho-poster.jpg"}],"pathImage":"https://img.ophim10.cc/uploads/movies/","pagination":{"totalItems":25103,"totalItemsPerPage":24,"currentPage":13,"totalPages":1046}}