{"status":true,"items":[{"modified":{"time":"2023-12-14T10:33:24.000Z"},"_id":"62287e5ceb35da19972e173b","name":"Rèn gan dạ","origin_name":"One Night","thumb_url":"ren-gan-da-thumb.jpg","slug":"ren-gan-da","year":2016,"poster_url":"ren-gan-da-poster.jpg"},{"modified":{"time":"2023-12-14T10:33:13.000Z"},"_id":"62287e4feb35da19972e172a","name":"Tâm xà sát cơ chi Phệ tâm thuật","origin_name":"The Truth","thumb_url":"tam-xa-sat-co-chi-phe-tam-thuat-thumb.jpg","slug":"tam-xa-sat-co-chi-phe-tam-thuat","year":2018,"poster_url":"tam-xa-sat-co-chi-phe-tam-thuat-poster.jpg"},{"modified":{"time":"2023-12-14T10:33:04.000Z"},"_id":"62287e41eb35da19972e1719","name":"Thiên niên kỷ","origin_name":"Millennium Dryad","thumb_url":"thien-nien-ky-thumb.jpg","slug":"thien-nien-ky","year":2018,"poster_url":"thien-nien-ky-poster.jpg"},{"modified":{"time":"2023-12-14T10:32:54.000Z"},"_id":"62287e34eb35da19972e1708","name":"Thiếu chiến tinh anh: Bảo tàng của ông nội","origin_name":"Grandpa&#x27;&#x27;s Treasure","thumb_url":"thieu-chien-tinh-anh-bao-tang-cua-ong-noi-thumb.jpg","slug":"thieu-chien-tinh-anh-bao-tang-cua-ong-noi","year":2018,"poster_url":"thieu-chien-tinh-anh-bao-tang-cua-ong-noi-poster.jpg"},{"modified":{"time":"2023-12-14T10:32:45.000Z"},"_id":"62287e25eb35da19972e16f7","name":"Tìm lại chính mình trong thế giới ảo","origin_name":"Find Yourself in Virtual World","thumb_url":"tim-lai-chinh-minh-trong-the-gioi-ao-thumb.jpg","slug":"tim-lai-chinh-minh-trong-the-gioi-ao","year":2018,"poster_url":"tim-lai-chinh-minh-trong-the-gioi-ao-poster.jpg"},{"modified":{"time":"2023-12-14T10:32:35.000Z"},"_id":"62287e16eb35da19972e16e6","name":"Tình yêu ô quan","origin_name":"Grid Love","thumb_url":"tinh-yeu-o-quan-thumb.jpg","slug":"tinh-yeu-o-quan","year":2018,"poster_url":"tinh-yeu-o-quan-poster.jpg"},{"modified":{"time":"2023-12-14T10:32:23.000Z"},"_id":"62287de6eb35da19972e16cc","name":"Trí Thâm truyện","origin_name":"A Monk's Madness","thumb_url":"tri-tham-truyen-thumb.jpg","slug":"tri-tham-truyen","year":2018,"poster_url":"tri-tham-truyen-poster.jpg"},{"modified":{"time":"2023-12-14T10:32:09.000Z"},"_id":"62287dd8eb35da19972e16bb","name":"Tuyệt sắc áo bông","origin_name":"The Exceedingly Beautiful Imperial Gaurds","thumb_url":"tuyet-sac-ao-bong-thumb.jpg","slug":"tuyet-sac-ao-bong","year":2017,"poster_url":"tuyet-sac-ao-bong-poster.jpg"},{"modified":{"time":"2023-12-14T10:31:57.000Z"},"_id":"62287dcaeb35da19972e16aa","name":"Vô tự thiên thư","origin_name":"The Wordless Book","thumb_url":"vo-tu-thien-thu-thumb.jpg","slug":"vo-tu-thien-thu","year":2017,"poster_url":"vo-tu-thien-thu-poster.jpg"},{"modified":{"time":"2023-12-14T10:31:33.000Z"},"_id":"62287daeeb35da19972e1685","name":"Yêu em khi gặp","origin_name":"Love You When Encounter","thumb_url":"yeu-em-khi-gap-thumb.jpg","slug":"yeu-em-khi-gap","year":2018,"poster_url":"yeu-em-khi-gap-poster.jpg"},{"modified":{"time":"2023-12-14T10:31:21.000Z"},"_id":"62287d9feb35da19972e1674","name":"Yêu em nhanh chóng của Thời gian lang nhân","origin_name":"The Playboy: A Frightening Love","thumb_url":"yeu-em-nhanh-chong-cua-thoi-gian-lang-nhan-thumb.jpg","slug":"yeu-em-nhanh-chong-cua-thoi-gian-lang-nhan","year":2017,"poster_url":"yeu-em-nhanh-chong-cua-thoi-gian-lang-nhan-poster.jpg"},{"modified":{"time":"2023-12-14T10:31:09.000Z"},"_id":"62287d87eb35da19972e1660","name":"Ám du ký 1  Bà quản bếp bất lương","origin_name":"Bad Cook","thumb_url":"am-du-ky-1-ba-quan-bep-bat-luong-thumb.jpg","slug":"am-du-ky-1-ba-quan-bep-bat-luong","year":2018,"poster_url":"am-du-ky-1-ba-quan-bep-bat-luong-poster.jpg"},{"modified":{"time":"2023-12-14T10:30:56.000Z"},"_id":"62287d70eb35da19972e164f","name":"Anh hùng vương bài","origin_name":"The Ace Hero","thumb_url":"anh-hung-vuong-bai-thumb.jpg","slug":"anh-hung-vuong-bai","year":2017,"poster_url":"anh-hung-vuong-bai-poster.jpg"},{"modified":{"time":"2023-12-14T10:30:45.000Z"},"_id":"62276567eb35da19972e03e2","name":"Biệt đội săn ma","origin_name":"Ghostbusters","thumb_url":"biet-doi-san-ma-thumb.jpg","slug":"biet-doi-san-ma","year":2016,"poster_url":"biet-doi-san-ma-poster.jpg"},{"modified":{"time":"2023-12-14T10:30:22.000Z"},"_id":"6227652beb35da19972e03b4","name":"Chuyên gia xảo quyệt","origin_name":"Tricky Brains","thumb_url":"chuyen-gia-xao-quyet-thumb.jpg","slug":"chuyen-gia-xao-quyet","year":1991,"poster_url":"chuyen-gia-xao-quyet-poster.jpg"},{"modified":{"time":"2023-12-14T10:30:05.000Z"},"_id":"62276508eb35da19972e039d","name":"Cambridge Analytica: Bê bối dữ liệu","origin_name":"The Great Hack","thumb_url":"cambridge-analytica-be-boi-du-lieu-thumb.jpg","slug":"cambridge-analytica-be-boi-du-lieu","year":2019,"poster_url":"cambridge-analytica-be-boi-du-lieu-poster.jpg"},{"modified":{"time":"2023-12-14T10:29:52.000Z"},"_id":"622764e8eb35da19972e0386","name":"Cuộc đời của David Gale","origin_name":"The Life of David Gale","thumb_url":"cuoc-doi-cua-david-gale-thumb.jpg","slug":"cuoc-doi-cua-david-gale","year":2003,"poster_url":"cuoc-doi-cua-david-gale-poster.jpg"},{"modified":{"time":"2023-12-13T23:52:00.000Z"},"_id":"6579e12f2f36c295ed23dd7e","name":"Thiên Nhai Minh Nguyệt Đao","slug":"thien-nhai-minh-nguyet-dao","origin_name":"Thiên Nhai Minh Nguyệt Đao","thumb_url":"thien-nhai-minh-nguyet-dao-thumb.jpg","poster_url":"thien-nhai-minh-nguyet-dao-poster.jpg","year":1985},{"modified":{"time":"2023-12-13T23:43:27.000Z"},"_id":"6579df2befed8b7739a3fccb","name":"Mặt Nạ Quân Chủ ","slug":"mat-na-quan-chu","origin_name":"The Emperor: Owner of the Mask ","thumb_url":"mat-na-quan-chu-thumb.jpg","poster_url":"mat-na-quan-chu-poster.jpg","year":2017},{"modified":{"time":"2023-12-13T20:13:18.000Z"},"_id":"657711e62f36c295ed143fd0","name":"Phía Sau Bóng Tối","slug":"phia-sau-bong-toi","origin_name":"Behind The Shadows (2023 KBS Drama Special Ep 9)","thumb_url":"phia-sau-bong-toi-thumb.jpg","poster_url":"phia-sau-bong-toi-poster.jpg","year":2023},{"modified":{"time":"2023-12-13T17:03:08.000Z"},"_id":"65631b7203f63c57cbb0f6cc","name":"Không Chỉ Là Thích Em","slug":"khong-chi-la-thich-em","origin_name":"I May Love You","thumb_url":"khong-chi-la-thich-em-thumb.jpg","poster_url":"khong-chi-la-thich-em-poster.jpg","year":2023},{"modified":{"time":"2023-12-13T16:29:30.000Z"},"_id":"657979642f36c295ed22ee09","name":"Đại Xà 4: Thế Giới Thất Lạc","slug":"dai-xa-4-the-gioi-that-lac","origin_name":"Snake 4: The Lost World","thumb_url":"dai-xa-4-the-gioi-that-lac-thumb.jpg","poster_url":"dai-xa-4-the-gioi-that-lac-poster.jpg","year":2023},{"modified":{"time":"2023-12-13T16:14:40.000Z"},"_id":"6579747cefed8b7739a30358","name":"Những Người Ở Lại","slug":"nhung-nguoi-o-lai","origin_name":"The Holdovers","thumb_url":"nhung-nguoi-o-lai-thumb.jpg","poster_url":"nhung-nguoi-o-lai-poster.jpg","year":2023},{"modified":{"time":"2023-12-13T15:37:42.000Z"},"_id":"65796ad12f36c295ed22a53b","name":"Quái Vật Trên Sông","slug":"quai-vat-tren-song","origin_name":"River Beast","thumb_url":"quai-vat-tren-song-thumb.jpg","poster_url":"quai-vat-tren-song-poster.jpg","year":2023}],"pathImage":"https://img.ophim10.cc/uploads/movies/","pagination":{"totalItems":25103,"totalItemsPerPage":24,"currentPage":14,"totalPages":1046}}