{"status":true,"items":[{"modified":{"time":"2023-12-26T13:48:43.000Z"},"_id":"646efe2f119a8f27d3c70647","name":"Thế Giới Mới Của Người Vợ","slug":"my-wife","origin_name":"My Wife","thumb_url":"my-wife-thumb.jpg","poster_url":"my-wife-poster.jpg","year":2023},{"modified":{"time":"2023-12-26T13:48:20.000Z"},"_id":"6476f9a66231cbfdd9513fca","name":"Cả Thế Giới Đang Chờ Hai Người Chia Tay","slug":"ca-the-gioi-dang-cho-hai-nguoi-chia-tay","origin_name":"To Ship Someone","thumb_url":"ca-the-gioi-dang-cho-hai-nguoi-chia-tay-thumb.jpg","poster_url":"ca-the-gioi-dang-cho-hai-nguoi-chia-tay-poster.jpg","year":2023},{"modified":{"time":"2023-12-26T13:41:34.000Z"},"_id":"658a759aefed8b7739e1014f","name":"Một Mình Vẫn Ổn't","slug":"mot-minh-van-ont","origin_name":"Single in Seoul","thumb_url":"mot-minh-van-ont-thumb.jpg","poster_url":"mot-minh-van-ont-poster.jpg","year":2023},{"modified":{"time":"2023-12-26T13:34:23.000Z"},"_id":"658a6dfaefed8b7739e0e4af","name":"Đấu Phá Thương Khung 2: Ngừng Chiến","slug":"dau-pha-thuong-khung-2-ngung-chien","origin_name":"Fights Break Sphere 2","thumb_url":"dau-pha-thuong-khung-2-ngung-chien-thumb.jpg","poster_url":"dau-pha-thuong-khung-2-ngung-chien-poster.jpg","year":2023},{"modified":{"time":"2023-12-26T12:59:20.000Z"},"_id":"65530d70aa7d07ce5c84d236","name":"Giấu Em","slug":"giau-em","origin_name":"Sakla Beni","thumb_url":"giau-em-thumb.jpg","poster_url":"giau-em-poster.jpg","year":2023},{"modified":{"time":"2023-12-26T12:44:22.000Z"},"_id":"655486dd03f63c57cb959274","name":"Hãy Nói Với Anh Rằng Em Yêu Anh","slug":"hay-noi-voi-anh-rang-em-yeu-anh","origin_name":"Tell Me You Love Me","thumb_url":"hay-noi-voi-anh-rang-em-yeu-anh-thumb.jpg","poster_url":"hay-noi-voi-anh-rang-em-yeu-anh-poster.jpg","year":2023},{"modified":{"time":"2023-12-26T01:32:13.000Z"},"_id":"6576fbcfefed8b773992c10a","name":"Không Sợ Hãi","slug":"khong-so-hai","origin_name":"Fearless","thumb_url":"khong-so-hai-thumb.jpg","poster_url":"khong-so-hai-poster.jpg","year":2023},{"modified":{"time":"2023-12-26T01:01:27.000Z"},"_id":"65548909aa7d07ce5c87ad65","name":"Nhạc Trưởng Maestra: Sợi Dây Chân Lý","slug":"nhac-truong-maestra-soi-day-chan-ly","origin_name":"Maestra: Strings of Truth","thumb_url":"nhac-truong-maestra-soi-day-chan-ly-thumb.jpg","poster_url":"nhac-truong-maestra-soi-day-chan-ly-poster.jpg","year":2023},{"modified":{"time":"2023-12-25T23:32:18.000Z"},"_id":"654090bbe2f0dc639fd9c43a","name":"Đại Chiến Mai Mối","slug":"dai-chien-mai-moi","origin_name":"The Matchmakers","thumb_url":"dai-chien-mai-moi-thumb.jpg","poster_url":"dai-chien-mai-moi-poster.jpg","year":2023},{"modified":{"time":"2023-12-25T20:38:35.000Z"},"_id":"658985daefed8b7739dfa2fc","name":"A Bite of China ","slug":"a-bite-of-china","origin_name":"A Bite of China ","thumb_url":"a-bite-of-china-thumb.jpg","poster_url":"a-bite-of-china-poster.jpg","year":2012},{"modified":{"time":"2023-12-25T20:35:10.000Z"},"_id":"6589850b2f36c295ed5f4a12","name":"Inside the Factory S3","slug":"inside-the-factory-s3","origin_name":"Inside the Factory","thumb_url":"inside-the-factory-s3-thumb.jpg","poster_url":"inside-the-factory-s3-poster.jpg","year":2015},{"modified":{"time":"2023-12-25T20:32:42.000Z"},"_id":"658984782f36c295ed5f4575","name":"Nga My Sơn","slug":"nga-my-son","origin_name":"China Inheriting: Mount Emei","thumb_url":"nga-my-son-thumb.jpg","poster_url":"nga-my-son-poster.jpg","year":2013},{"modified":{"time":"2023-12-25T20:28:52.000Z"},"_id":"658982882f36c295ed5f3a0a","name":"Thiên Nhiên Hoang Dã Hawaii","slug":"thien-nhien-hoang-da-hawaii","origin_name":"Wild Hawaii","thumb_url":"thien-nhien-hoang-da-hawaii-thumb.jpg","poster_url":"thien-nhien-hoang-da-hawaii-poster.jpg","year":2014},{"modified":{"time":"2023-12-25T20:28:19.000Z"},"_id":"6589835c2f36c295ed5f3f4b","name":"Bảy Thế Giới, Một Hành Tinh","slug":"bay-the-gioi-mot-hanh-tinh","origin_name":"Seven Worlds, One Planet","thumb_url":"bay-the-gioi-mot-hanh-tinh-thumb.jpg","poster_url":"bay-the-gioi-mot-hanh-tinh-poster.jpg","year":2019},{"modified":{"time":"2023-12-25T19:58:48.000Z"},"_id":"65897c7e2f36c295ed5f2e1f","name":"Đêm Khó Quên","slug":"unforgotten-night-dem-kho-quen","origin_name":"Unforgotten Night","thumb_url":"unforgotten-night-dem-kho-quen-thumb.jpg","poster_url":"unforgotten-night-dem-kho-quen-poster.jpg","year":2023},{"modified":{"time":"2023-12-25T19:58:08.000Z"},"_id":"65897c602f36c295ed5f2ca8","name":"Tai Trái","slug":"tai-trai","origin_name":"The Left Ear","thumb_url":"tai-trai-thumb.jpg","poster_url":"tai-trai-poster.jpg","year":2023},{"modified":{"time":"2023-12-25T19:57:32.000Z"},"_id":"65897c372f36c295ed5f2a59","name":"Thế Giới Phỏng Sinh","slug":"the-gioi-phong-sinh","origin_name":"The Bionic Life","thumb_url":"the-gioi-phong-sinh-thumb.jpg","poster_url":"the-gioi-phong-sinh-poster.jpg","year":2023},{"modified":{"time":"2023-12-25T19:56:40.000Z"},"_id":"65897c082f36c295ed5f27f4","name":"Bí Mật Của Anh Ấy Và Cô Ấy","slug":"bi-mat-cua-anh-ay-va-co-ay","origin_name":"His and Her Secrets","thumb_url":"bi-mat-cua-anh-ay-va-co-ay-thumb.jpg","poster_url":"bi-mat-cua-anh-ay-va-co-ay-poster.jpg","year":2023},{"modified":{"time":"2023-12-25T19:45:36.000Z"},"_id":"65885731efed8b7739de63e0","name":"Lễ Tạ Ơn Kinh Hoàng","slug":"le-ta-on-kinh-hoang","origin_name":"Thanksgiving","thumb_url":"le-ta-on-kinh-hoang-thumb.jpg","poster_url":"le-ta-on-kinh-hoang-poster.jpg","year":2023},{"modified":{"time":"2023-12-25T18:26:51.000Z"},"_id":"6586599defed8b7739dbae07","name":"Quần Áo Mới Của Công Chúa","slug":"quan-ao-moi-cua-cong-chua","origin_name":"The Princess’s New Clothes","thumb_url":"quan-ao-moi-cua-cong-chua-thumb.jpg","poster_url":"quan-ao-moi-cua-cong-chua-poster.jpg","year":2023},{"modified":{"time":"2023-12-25T18:26:17.000Z"},"_id":"657af065efed8b7739a64905","name":"Hồng Nhan Lệnh","slug":"hong-nhan-lenh","origin_name":"Her Revenge","thumb_url":"hong-nhan-lenh-thumb.jpg","poster_url":"hong-nhan-lenh-poster.jpg","year":2023},{"modified":{"time":"2023-12-25T18:25:56.000Z"},"_id":"656f01feaa7d07ce5cb9e0c4","name":"Tình Yêu Mù Quáng","slug":"tinh-yeu-mu-quang-2023","origin_name":"Forever Love","thumb_url":"tinh-yeu-mu-quang-2023-thumb.jpg","poster_url":"tinh-yeu-mu-quang-2023-poster.jpg","year":2023},{"modified":{"time":"2023-12-25T18:25:34.000Z"},"_id":"6576b4d5efed8b773991bef9","name":"Yêu Đương Đi Trại Chủ","slug":"yeu-duong-di-trai-chu","origin_name":"Fall in Love Stockade","thumb_url":"yeu-duong-di-trai-chu-thumb.jpg","poster_url":"yeu-duong-di-trai-chu-poster.jpg","year":2023},{"modified":{"time":"2023-12-25T17:29:07.000Z"},"_id":"657b00162f36c295ed264e40","name":"Trò Chơi Sống Còn","slug":"tro-choi-song-con","origin_name":"Fatal Rule","thumb_url":"tro-choi-song-con-thumb.jpg","poster_url":"tro-choi-song-con-poster.jpg","year":2023}],"pathImage":"https://img.ophim10.cc/uploads/movies/","pagination":{"totalItems":25070,"totalItemsPerPage":24,"currentPage":4,"totalPages":1045}}