{"status":true,"items":[{"modified":{"time":"2023-12-13T11:33:43.000Z"},"_id":"6576b4d5efed8b773991bef9","name":"Yêu Đương Đi Trại Chủ","slug":"yeu-duong-di-trai-chu","origin_name":"Fall in Love Stockade","thumb_url":"yeu-duong-di-trai-chu-thumb.jpg","poster_url":"yeu-duong-di-trai-chu-poster.jpg","year":2023},{"modified":{"time":"2023-12-13T00:24:25.000Z"},"_id":"655486dd03f63c57cb959274","name":"Hãy Nói Với Anh Rằng Em Yêu Anh","slug":"hay-noi-voi-anh-rang-em-yeu-anh","origin_name":"Tell Me You Love Me","thumb_url":"hay-noi-voi-anh-rang-em-yeu-anh-thumb.jpg","poster_url":"hay-noi-voi-anh-rang-em-yeu-anh-poster.jpg","year":2023},{"modified":{"time":"2023-12-12T23:31:17.000Z"},"_id":"65784be12f36c295ed1ea978","name":"Vòng Lặp","slug":"vong-lap-2023","origin_name":"Overlap Knife, Knife (2023 KBS Drama Special Ep 8)","thumb_url":"vong-lap-2023-thumb.jpg","poster_url":"vong-lap-2023-poster.jpg","year":2023},{"modified":{"time":"2023-12-12T22:39:16.000Z"},"_id":"65787e50efed8b7739a195aa","name":"Nhật Nguyệt Thần Kiếm - Phần 1","slug":"nhat-nguyet-than-kiem-phan-1","origin_name":"Nhật Nguyệt Thần Kiếm - Phần 1","thumb_url":"nhat-nguyet-than-kiem-phan-1-thumb.jpg","poster_url":"nhat-nguyet-than-kiem-phan-1-poster.jpg","year":1991},{"modified":{"time":"2023-12-12T22:38:40.000Z"},"_id":"65787cfbefed8b7739a18ed0","name":"Nhật Nguyệt Thần Kiếm - Phần 2","slug":"nhat-nguyet-than-kiem-phan-2","origin_name":"Nhật Nguyệt Thần Kiếm","thumb_url":"nhat-nguyet-than-kiem-phan-2-thumb.jpg","poster_url":"nhat-nguyet-than-kiem-phan-2-poster.jpg","year":1992},{"modified":{"time":"2023-12-12T22:29:37.000Z"},"_id":"65771033efed8b773993e41e","name":"Tỏ Tình Công Lược","slug":"to-tinh-cong-luoc","origin_name":"Love Attack (2023 KBS Drama Special Ep 7)","thumb_url":"to-tinh-cong-luoc-thumb.jpg","poster_url":"to-tinh-cong-luoc-poster.jpg","year":2023},{"modified":{"time":"2023-12-12T22:25:13.000Z"},"_id":"65787b562f36c295ed215186","name":"Nữ Hoàng Tin Tức ","slug":"nu-hoang-tin-tuc","origin_name":"The Queen of News ","thumb_url":"nu-hoang-tin-tuc-thumb.jpg","poster_url":"nu-hoang-tin-tuc-poster.jpg","year":2023},{"modified":{"time":"2023-12-12T22:04:33.000Z"},"_id":"6565bbc3aa7d07ce5ca76162","name":"Yêu như trong phim Hàn","slug":"yeu-nhu-trong-phim-han","origin_name":"Love Like a K-Drama","thumb_url":"yeu-nhu-trong-phim-han-thumb.jpg","poster_url":"yeu-nhu-trong-phim-han-poster.jpg","year":2023},{"modified":{"time":"2023-12-12T21:52:59.000Z"},"_id":"654090bbe2f0dc639fd9c43a","name":"Đại Chiến Mai Mối","slug":"dai-chien-mai-moi","origin_name":"The Matchmakers","thumb_url":"dai-chien-mai-moi-thumb.jpg","poster_url":"dai-chien-mai-moi-poster.jpg","year":2023},{"modified":{"time":"2023-12-12T21:39:39.000Z"},"_id":"657719ba2f36c295ed14e29d","name":" Tình Yêu Đích Thực Của Phu Nhân","slug":"tinh-yeu-dich-thuc-cua-phu-nhan","origin_name":"The True Love of Madam (2023 KBS Drama Special Ep 6)","thumb_url":"tinh-yeu-dich-thuc-cua-phu-nhan-thumb.jpg","poster_url":"tinh-yeu-dich-thuc-cua-phu-nhan-poster.jpg","year":2023},{"modified":{"time":"2023-12-12T20:43:22.000Z"},"_id":"65784ac42f36c295ed1e8497","name":"Những Kẻ Thờ Ơ","slug":"nhung-ke-tho-o","origin_name":"Anyone, Anywhere (2023 KBS Drama Special Ep 4)","thumb_url":"nhung-ke-tho-o-thumb.jpg","poster_url":"nhung-ke-tho-o-poster.jpg","year":2023},{"modified":{"time":"2023-12-12T19:17:43.000Z"},"_id":"656c4625aa7d07ce5cb41f5a","name":"Vận Mệnh Đôi Bửu","slug":"van-menh-doi-buu","origin_name":"Being Twins","thumb_url":"van-menh-doi-buu-thumb.jpg","poster_url":"van-menh-doi-buu-poster.jpg","year":1992},{"modified":{"time":"2023-12-12T18:59:21.000Z"},"_id":"6577192fefed8b77399496a3","name":"Mùa Hè Nóng Bỏng","slug":"mua-he-nong-bong","origin_name":"Dog Days of Summer (2023 KBS Drama Special Ep 5)","thumb_url":"mua-he-nong-bong-thumb.jpg","poster_url":"mua-he-nong-bong-poster.jpg","year":2023},{"modified":{"time":"2023-12-12T16:07:24.000Z"},"_id":"6525105ee2f0dc639fc99b20","name":"Quỷ Vương Thánh Kiếm","slug":"quy-vuong-thanh-kiem","origin_name":"Ma Kiếm Sư tại Học Viện Thánh Kiếm || Magic Sword Master of Holy Sword School","thumb_url":"quy-vuong-thanh-kiem-thumb.jpg","poster_url":"quy-vuong-thanh-kiem-poster.jpg","year":2023},{"modified":{"time":"2023-12-12T16:07:02.000Z"},"_id":"651bdea11e9ad2fe0c437107","name":"Nhật ký hoạt động của một ông chú nọ trong thế giới VRMMO","slug":"nhat-ky-hoat-dong-cua-mot-ong-chu-no-trong-the-gioi-vrmmo","origin_name":"とあるおっさんのVRMMO活動記","thumb_url":"nhat-ky-hoat-dong-cua-mot-ong-chu-no-trong-the-gioi-vrmmo-thumb.jpg","poster_url":"nhat-ky-hoat-dong-cua-mot-ong-chu-no-trong-the-gioi-vrmmo-poster.jpg","year":2023},{"modified":{"time":"2023-12-12T15:12:08.000Z"},"_id":"6576fbcfefed8b773992c10a","name":"Không Sợ Hãi","slug":"khong-so-hai","origin_name":"Fearless","thumb_url":"khong-so-hai-thumb.jpg","poster_url":"khong-so-hai-poster.jpg","year":2023},{"modified":{"time":"2023-12-12T14:26:45.000Z"},"_id":"65530d70aa7d07ce5c84d236","name":"Giấu Em","slug":"giau-em","origin_name":"Sakla Beni","thumb_url":"giau-em-thumb.jpg","poster_url":"giau-em-poster.jpg","year":2023},{"modified":{"time":"2023-12-12T14:25:55.000Z"},"_id":"6433c3eb11f407ffb90f499c","name":"Tôi Là Farah","slug":"toi-la-farah","origin_name":"Adim Farah","thumb_url":"toi-la-farah-thumb.jpg","poster_url":"toi-la-farah-poster.jpg","year":2023},{"modified":{"time":"2023-12-12T14:00:58.000Z"},"_id":"657715ea2f36c295ed1491cc","name":"Cú Sút Tình Yêu","slug":"cu-sut-tinh-yeu","origin_name":"Shoot for Love (2023 KBS Drama Special Ep 3)","thumb_url":"cu-sut-tinh-yeu-thumb.jpg","poster_url":"cu-sut-tinh-yeu-poster.jpg","year":2023},{"modified":{"time":"2023-12-12T14:00:24.000Z"},"_id":"6577156a2f36c295ed148a0c","name":"Lời Nói Dối Nửa Vời","slug":"nua-loi-noi-doi","origin_name":"Half Lies (2023 KBS Drama Special Ep 2)","thumb_url":"nua-loi-noi-doi-thumb.jpg","poster_url":"nua-loi-noi-doi-poster.jpg","year":2023},{"modified":{"time":"2023-12-12T12:13:42.000Z"},"_id":"6577ec06efed8b77399a195d","name":"Thế chiến II: Lời kể từ tiền tuyến","slug":"the-chien-ii-loi-ke-tu-tien-tuyen","origin_name":"World War II: From the Frontlines","thumb_url":"the-chien-ii-loi-ke-tu-tien-tuyen-thumb.jpg","poster_url":"the-chien-ii-loi-ke-tu-tien-tuyen-poster.jpg","year":2023},{"modified":{"time":"2023-12-12T12:13:07.000Z"},"_id":"6577ebe32f36c295ed1a37ce","name":"The Archies","slug":"the-archies","origin_name":"The Archies","thumb_url":"the-archies-thumb.jpg","poster_url":"the-archies-poster.jpg","year":2023},{"modified":{"time":"2023-12-12T12:12:34.000Z"},"_id":"6577ebc22f36c295ed1a3698","name":"Suzzanna: Lời nguyền đêm thứ Sáu","slug":"suzzanna-loi-nguyen-dem-thu-sau","origin_name":"Suzzanna: Kliwon Friday Night","thumb_url":"suzzanna-loi-nguyen-dem-thu-sau-thumb.jpg","poster_url":"suzzanna-loi-nguyen-dem-thu-sau-poster.jpg","year":2023},{"modified":{"time":"2023-12-12T12:11:59.000Z"},"_id":"6577eb9f2f36c295ed1a3533","name":"Nhật ký giọt sương (Phần 2)","slug":"nhat-ky-giot-suong-phan-2","origin_name":"Dew Drop Diaries (Season 2)","thumb_url":"nhat-ky-giot-suong-phan-2-thumb.jpg","poster_url":"nhat-ky-giot-suong-phan-2-poster.jpg","year":2023}],"pathImage":"https://img.ophim9.cc/uploads/movies/","pagination":{"totalItems":24978,"totalItemsPerPage":24,"currentPage":8,"totalPages":1041}}