{"status":true,"items":[{"modified":{"time":"2023-12-16T11:14:01.000Z"},"_id":"657d2409efed8b7739aafc4b","name":"Wonka","slug":"wonka","origin_name":"Wonka","thumb_url":"wonka-thumb.jpg","poster_url":"wonka-poster.jpg","year":2023},{"modified":{"time":"2023-12-16T11:09:18.000Z"},"_id":"657d22eeefed8b7739aaf629","name":"Kung Fu Panda 4","slug":"kung-fu-panda-4","origin_name":"Kung Fu Panda 4","thumb_url":"kung-fu-panda-4-thumb.jpg","poster_url":"kung-fu-panda-4-poster.jpg","year":2024},{"modified":{"time":"2023-12-16T10:29:55.000Z"},"_id":"657d17dcefed8b7739aace97","name":"Fast Charlie","slug":"fast-charlie","origin_name":"Fast Charlie","thumb_url":"fast-charlie-thumb.jpg","poster_url":"fast-charlie-poster.jpg","year":2023},{"modified":{"time":"2023-12-16T10:15:26.000Z"},"_id":"6227644eeb35da19972e0327","name":"DJ Lọ Lem","origin_name":"DJ Cinderella","thumb_url":"dj-lo-lem-thumb.jpg","slug":"dj-lo-lem","year":2019,"poster_url":"dj-lo-lem-poster.jpg"},{"modified":{"time":"2023-12-16T10:15:13.000Z"},"_id":"622763c3eb35da19972e02e7","name":"Huyền thoại Zorro","origin_name":"The Legend of Zorro","thumb_url":"huyen-thoai-zorro-thumb.jpg","slug":"huyen-thoai-zorro","year":2005,"poster_url":"huyen-thoai-zorro-poster.jpg"},{"modified":{"time":"2023-12-16T10:15:01.000Z"},"_id":"622763a8eb35da19972e02d0","name":"Kế hoạch đào tẩu 3: Giải cứu","origin_name":"Escape Plan: The Extractors","thumb_url":"ke-hoach-dao-tau-3-giai-cuu-thumb.jpg","slug":"ke-hoach-dao-tau-3-giai-cuu","year":2019,"poster_url":"ke-hoach-dao-tau-3-giai-cuu-poster.jpg"},{"modified":{"time":"2023-12-16T10:14:49.000Z"},"_id":"6227636aeb35da19972e02a6","name":"Kẻ thù quốc gia","origin_name":"Public Enemies","thumb_url":"ke-thu-quoc-gia-thumb.jpg","slug":"ke-thu-quoc-gia","year":2009,"poster_url":"ke-thu-quoc-gia-poster.jpg"},{"modified":{"time":"2023-12-16T10:14:36.000Z"},"_id":"6227628beb35da19972e0212","name":"Trận chiến ánh sáng","origin_name":"The Current War","thumb_url":"tran-chien-anh-sang-thumb.jpg","slug":"tran-chien-anh-sang","year":2017,"poster_url":"tran-chien-anh-sang-poster.jpg"},{"modified":{"time":"2023-12-16T10:14:13.000Z"},"_id":"62276240eb35da19972e01ab","name":"Trạng Quỳnh","origin_name":"Trang Quynh","thumb_url":"trang-quynh-thumb.jpg","slug":"trang-quynh","year":2019,"poster_url":"trang-quynh-poster.jpg"},{"modified":{"time":"2023-12-16T10:13:58.000Z"},"_id":"62276225eb35da19972e018a","name":"Điệp viên thiên thần","origin_name":"The Angel","thumb_url":"diep-vien-thien-than-thumb.jpg","slug":"diep-vien-thien-than","year":2018,"poster_url":"diep-vien-thien-than-poster.jpg"},{"modified":{"time":"2023-12-16T10:13:47.000Z"},"_id":"622761fceb35da19972e014a","name":"Biệt đội đánh thuê","origin_name":"The Expendables","thumb_url":"biet-doi-danh-thue-thumb.jpg","slug":"biet-doi-danh-thue","year":2010,"poster_url":"biet-doi-danh-thue-poster.jpg"},{"modified":{"time":"2023-12-16T10:13:32.000Z"},"_id":"6227618aeb35da19972e0088","name":"HOMECOMING: Phim của Beyoncé","origin_name":"HOMECOMING: A film by Beyoncé","thumb_url":"homecoming-phim-cua-beyonce-thumb.jpg","slug":"homecoming-phim-cua-beyonce","year":2019,"poster_url":"homecoming-phim-cua-beyonce-poster.jpg"},{"modified":{"time":"2023-12-16T10:13:21.000Z"},"_id":"62276157eb35da19972e004d","name":"Trái tim rồng 3: Lời nguyền của phù thủy","origin_name":"Dragonheart 3: The Sorcerer's Curse","thumb_url":"trai-tim-rong-3-loi-nguyen-cua-phu-thuy-thumb.jpg","slug":"trai-tim-rong-3-loi-nguyen-cua-phu-thuy","year":2015,"poster_url":"trai-tim-rong-3-loi-nguyen-cua-phu-thuy-poster.jpg"},{"modified":{"time":"2023-12-16T10:13:09.000Z"},"_id":"6227610ceb35da19972dffb7","name":"Tay đua siêu phàm","origin_name":"Burn Out","thumb_url":"tay-dua-sieu-pham-thumb.jpg","slug":"tay-dua-sieu-pham","year":2017,"poster_url":"tay-dua-sieu-pham-poster.jpg"},{"modified":{"time":"2023-12-16T10:12:53.000Z"},"_id":"622760c5eb35da19972dff44","name":"Kẻ trộm siêu thị","origin_name":"Shoplifters","thumb_url":"ke-trom-sieu-thi-thumb.jpg","slug":"ke-trom-sieu-thi","year":2018,"poster_url":"ke-trom-sieu-thi-poster.jpg"},{"modified":{"time":"2023-12-16T10:12:40.000Z"},"_id":"622760a8eb35da19972dfefa","name":"Mục tiêu khó diệt","origin_name":"Hard Target","thumb_url":"muc-tieu-kho-diet-thumb.jpg","slug":"muc-tieu-kho-diet","year":1993,"poster_url":"muc-tieu-kho-diet-poster.jpg"},{"modified":{"time":"2023-12-16T10:12:28.000Z"},"_id":"62276070eb35da19972dfe8f","name":"Ông hoàng thời trang","origin_name":"Fashion King","thumb_url":"ong-hoang-thoi-trang-thumb.jpg","slug":"ong-hoang-thoi-trang","year":2014,"poster_url":"ong-hoang-thoi-trang-poster.jpg"},{"modified":{"time":"2023-12-16T10:12:11.000Z"},"_id":"62275feceb35da19972dfe10","name":"Món quà bí ẩn","origin_name":"Good Sam","thumb_url":"mon-qua-bi-an-thumb.jpg","slug":"mon-qua-bi-an","year":2019,"poster_url":"mon-qua-bi-an-poster.jpg"},{"modified":{"time":"2023-12-16T10:11:58.000Z"},"_id":"62275fcbeb35da19972dfdbe","name":"Tam đại tặc vương","origin_name":"Trivisa","thumb_url":"tam-dai-tac-vuong-thumb.jpg","slug":"tam-dai-tac-vuong","year":2016,"poster_url":"tam-dai-tac-vuong-poster.jpg"},{"modified":{"time":"2023-12-16T10:11:43.000Z"},"_id":"62275fb2eb35da19972dfdb0","name":"Tốc độ nguy hiểm","origin_name":"Maximum Risk","thumb_url":"toc-do-nguy-hiem-thumb.jpg","slug":"toc-do-nguy-hiem","year":1996,"poster_url":"toc-do-nguy-hiem-poster.jpg"},{"modified":{"time":"2023-12-16T10:11:30.000Z"},"_id":"62275f92eb35da19972dfd6f","name":"Cú click huyền bí","origin_name":"Click","thumb_url":"cu-click-huyen-bi-thumb.jpg","slug":"cu-click-huyen-bi","year":2006,"poster_url":"cu-click-huyen-bi-poster.jpg"},{"modified":{"time":"2023-12-16T10:10:57.000Z"},"_id":"62275f65eb35da19972dfd1b","name":"Những gã trai hư 2","origin_name":"Bad Boys II","thumb_url":"nhung-ga-trai-hu-2-thumb.jpg","slug":"nhung-ga-trai-hu-2","year":2003,"poster_url":"nhung-ga-trai-hu-2-poster.jpg"},{"modified":{"time":"2023-12-16T00:21:47.000Z"},"_id":"657c60bdefed8b7739a9e5e8","name":"Godzilla Minus One","slug":"godzilla-minus-one","origin_name":"Godzilla Minus One","thumb_url":"godzilla-minus-one-thumb.jpg","poster_url":"godzilla-minus-one-poster.jpg","year":2023},{"modified":{"time":"2023-12-15T21:10:11.000Z"},"_id":"657c4013efed8b7739a98317","name":"Hẹn Hò Với Ông Già Tuyết ","slug":"hen-ho-voi-ong-gia-tuyet","origin_name":"Dating Santa","thumb_url":"hen-ho-voi-ong-gia-tuyet-thumb.jpg","poster_url":"hen-ho-voi-ong-gia-tuyet-poster.jpg","year":2023}],"pathImage":"https://img.ophim10.cc/uploads/movies/","pagination":{"totalItems":25103,"totalItemsPerPage":24,"currentPage":12,"totalPages":1046}}