{"status":true,"items":[{"modified":{"time":"2023-12-16T15:05:52.000Z"},"_id":"642eee1a839826002421b8bc","name":"Dr. STONE (Season 3)","slug":"drstone-new-world","origin_name":"Dr.STONE NEW WORLD","thumb_url":"drstone-new-world-thumb.jpg","poster_url":"drstone-new-world-poster.jpg","year":2023},{"modified":{"time":"2023-12-16T15:05:28.000Z"},"_id":"642ef5e8be1ee82036a5da76","name":"Cô Dâu Pháp Sư Phần 2","slug":"co-dau-phap-su-phan-2","origin_name":"魔法使いの嫁 2 期","thumb_url":"co-dau-phap-su-phan-2-thumb.jpg","poster_url":"co-dau-phap-su-phan-2-poster.jpg","year":2023},{"modified":{"time":"2023-12-16T15:03:04.000Z"},"_id":"6422921654695c9785d3b336","name":"Hoa Máu","slug":"hoa-mau","origin_name":"Kan Cicekleri","thumb_url":"hoa-mau-thumb.jpg","poster_url":"hoa-mau-poster.jpg","year":2022},{"modified":{"time":"2023-12-16T14:59:34.000Z"},"_id":"6521074860ad693b7ca0bbec","name":"Có bạn gái, lại thêm bạn gái mùa 2","slug":"co-ban-gai-lai-them-ban-gai-mua-2","origin_name":"カノジョも彼女2期","thumb_url":"co-ban-gai-lai-them-ban-gai-mua-2-thumb.jpg","poster_url":"co-ban-gai-lai-them-ban-gai-mua-2-poster.jpg","year":2023},{"modified":{"time":"2023-12-16T14:58:41.000Z"},"_id":"6515aa6b60ad693b7c99fe81","name":"CON GÁI TÔI ĐÃ ĐẾN THỦ ĐÔ VÀ TRỞ THÀNH MẠO HIỂM GIẢ HẠNG S","slug":"con-gai-toi-da-den-thu-do-va-tro-thanh-mao-hiem-gia-hang-s","origin_name":"冒険者になりたいと都に出て行った娘がＳランクになってた","thumb_url":"con-gai-toi-da-den-thu-do-va-tro-thanh-mao-hiem-gia-hang-s-thumb.jpg","poster_url":"con-gai-toi-da-den-thu-do-va-tro-thanh-mao-hiem-gia-hang-s-poster.jpg","year":2023},{"modified":{"time":"2023-12-16T14:58:15.000Z"},"_id":"65586fd303f63c57cb9da467","name":"Bất Tử Bất Diệt: Thiếu Niên Xuất Sơn","slug":"bat-tu-bat-diet-thieu-nien-xuat-son","origin_name":"The Eternal Strife","thumb_url":"bat-tu-bat-diet-thieu-nien-xuat-son-thumb.jpg","poster_url":"bat-tu-bat-diet-thieu-nien-xuat-son-poster.jpg","year":2023},{"modified":{"time":"2023-12-16T13:27:24.000Z"},"_id":"655c6638aa7d07ce5c96da42","name":"Tiếng Hót Chim Hồng Tước","slug":"tieng-hot-chim-hong-tuoc","origin_name":"Calikusu","thumb_url":"tieng-hot-chim-hong-tuoc-thumb.jpg","poster_url":"tieng-hot-chim-hong-tuoc-poster.jpg","year":2013},{"modified":{"time":"2023-12-16T13:27:05.000Z"},"_id":"6424439b83982600241f3873","name":"Gia Đình","slug":"gia-dinh","origin_name":"Aile","thumb_url":"gia-dinh-thumb.jpg","poster_url":"gia-dinh-poster.jpg","year":2023},{"modified":{"time":"2023-12-16T12:20:37.000Z"},"_id":"657093512f36c295ed073560","name":"Soundtrack #2","slug":"soundtrack-2","origin_name":"Soundtrack #2","thumb_url":"soundtrack-2-thumb.jpg","poster_url":"soundtrack-2-poster.jpg","year":2023},{"modified":{"time":"2023-12-16T11:14:01.000Z"},"_id":"657d2409efed8b7739aafc4b","name":"Wonka","slug":"wonka","origin_name":"Wonka","thumb_url":"wonka-thumb.jpg","poster_url":"wonka-poster.jpg","year":2023},{"modified":{"time":"2023-12-16T11:09:18.000Z"},"_id":"657d22eeefed8b7739aaf629","name":"Kung Fu Panda 4","slug":"kung-fu-panda-4","origin_name":"Kung Fu Panda 4","thumb_url":"kung-fu-panda-4-thumb.jpg","poster_url":"kung-fu-panda-4-poster.jpg","year":2024},{"modified":{"time":"2023-12-16T11:02:30.000Z"},"_id":"6572e5fdefed8b77398afe6b","name":"Tiên Sinh Mưu Mẹo Xin Chỉ Giáo","slug":"tien-sinh-muu-meo-xin-chi-giao","origin_name":"Trick in Love","thumb_url":"tien-sinh-muu-meo-xin-chi-giao-thumb.jpg","poster_url":"tien-sinh-muu-meo-xin-chi-giao-poster.jpg","year":2023},{"modified":{"time":"2023-12-16T10:29:55.000Z"},"_id":"657d17dcefed8b7739aace97","name":"Fast Charlie","slug":"fast-charlie","origin_name":"Fast Charlie","thumb_url":"fast-charlie-thumb.jpg","poster_url":"fast-charlie-poster.jpg","year":2023},{"modified":{"time":"2023-12-16T10:15:26.000Z"},"_id":"6227644eeb35da19972e0327","name":"DJ Lọ Lem","origin_name":"DJ Cinderella","thumb_url":"dj-lo-lem-thumb.jpg","slug":"dj-lo-lem","year":2019,"poster_url":"dj-lo-lem-poster.jpg"},{"modified":{"time":"2023-12-16T10:15:13.000Z"},"_id":"622763c3eb35da19972e02e7","name":"Huyền thoại Zorro","origin_name":"The Legend of Zorro","thumb_url":"huyen-thoai-zorro-thumb.jpg","slug":"huyen-thoai-zorro","year":2005,"poster_url":"huyen-thoai-zorro-poster.jpg"},{"modified":{"time":"2023-12-16T10:15:01.000Z"},"_id":"622763a8eb35da19972e02d0","name":"Kế hoạch đào tẩu 3: Giải cứu","origin_name":"Escape Plan: The Extractors","thumb_url":"ke-hoach-dao-tau-3-giai-cuu-thumb.jpg","slug":"ke-hoach-dao-tau-3-giai-cuu","year":2019,"poster_url":"ke-hoach-dao-tau-3-giai-cuu-poster.jpg"},{"modified":{"time":"2023-12-16T10:14:49.000Z"},"_id":"6227636aeb35da19972e02a6","name":"Kẻ thù quốc gia","origin_name":"Public Enemies","thumb_url":"ke-thu-quoc-gia-thumb.jpg","slug":"ke-thu-quoc-gia","year":2009,"poster_url":"ke-thu-quoc-gia-poster.jpg"},{"modified":{"time":"2023-12-16T10:14:36.000Z"},"_id":"6227628beb35da19972e0212","name":"Trận chiến ánh sáng","origin_name":"The Current War","thumb_url":"tran-chien-anh-sang-thumb.jpg","slug":"tran-chien-anh-sang","year":2017,"poster_url":"tran-chien-anh-sang-poster.jpg"},{"modified":{"time":"2023-12-16T10:14:13.000Z"},"_id":"62276240eb35da19972e01ab","name":"Trạng Quỳnh","origin_name":"Trang Quynh","thumb_url":"trang-quynh-thumb.jpg","slug":"trang-quynh","year":2019,"poster_url":"trang-quynh-poster.jpg"},{"modified":{"time":"2023-12-16T10:13:58.000Z"},"_id":"62276225eb35da19972e018a","name":"Điệp viên thiên thần","origin_name":"The Angel","thumb_url":"diep-vien-thien-than-thumb.jpg","slug":"diep-vien-thien-than","year":2018,"poster_url":"diep-vien-thien-than-poster.jpg"},{"modified":{"time":"2023-12-16T10:13:55.000Z"},"_id":"6576bcf02f36c295ed125be0","name":"Thiếu Niên Minh Long","slug":"thieu-nien-minh-long","origin_name":"The Hope","thumb_url":"thieu-nien-minh-long-thumb.jpg","poster_url":"thieu-nien-minh-long-poster.jpg","year":2023},{"modified":{"time":"2023-12-16T10:13:47.000Z"},"_id":"622761fceb35da19972e014a","name":"Biệt đội đánh thuê","origin_name":"The Expendables","thumb_url":"biet-doi-danh-thue-thumb.jpg","slug":"biet-doi-danh-thue","year":2010,"poster_url":"biet-doi-danh-thue-poster.jpg"},{"modified":{"time":"2023-12-16T10:13:32.000Z"},"_id":"6227618aeb35da19972e0088","name":"HOMECOMING: Phim của Beyoncé","origin_name":"HOMECOMING: A film by Beyoncé","thumb_url":"homecoming-phim-cua-beyonce-thumb.jpg","slug":"homecoming-phim-cua-beyonce","year":2019,"poster_url":"homecoming-phim-cua-beyonce-poster.jpg"},{"modified":{"time":"2023-12-16T10:13:21.000Z"},"_id":"62276157eb35da19972e004d","name":"Trái tim rồng 3: Lời nguyền của phù thủy","origin_name":"Dragonheart 3: The Sorcerer's Curse","thumb_url":"trai-tim-rong-3-loi-nguyen-cua-phu-thuy-thumb.jpg","slug":"trai-tim-rong-3-loi-nguyen-cua-phu-thuy","year":2015,"poster_url":"trai-tim-rong-3-loi-nguyen-cua-phu-thuy-poster.jpg"}],"pathImage":"https://img.ophim9.cc/uploads/movies/","pagination":{"totalItems":24970,"totalItemsPerPage":24,"currentPage":2,"totalPages":1041}}