{"status":true,"items":[{"modified":{"time":"2023-12-16T21:48:16.000Z"},"_id":"6560c68003f63c57cbac5f92","name":"Hợp Đồng Hôn Nhân","slug":"hop-dong-hon-nhan-cua-co-park","origin_name":"The Story of Park's Marriage Contract","thumb_url":"hop-dong-hon-nhan-cua-co-park-thumb.jpg","poster_url":"hop-dong-hon-nhan-cua-co-park-poster.jpg","year":2023},{"modified":{"time":"2023-12-16T21:42:19.000Z"},"_id":"6560ba40aa7d07ce5c9e582f","name":"Chàng Quỷ Của Tôi","slug":"chang-quy-cua-toi","origin_name":"My Demon","thumb_url":"chang-quy-cua-toi-thumb.jpg","poster_url":"chang-quy-cua-toi-poster.jpg","year":2023},{"modified":{"time":"2023-12-16T20:33:37.000Z"},"_id":"6546277c03f63c57cb7bff95","name":"Lính Cứu Hỏa Daigo: Người Cứu Hộ Orange","slug":"linh-cuu-hoa-daigo-nguoi-cuu-ho-orange","origin_name":"Firefighter Daigo: Rescuer in Orange","thumb_url":"linh-cuu-hoa-daigo-nguoi-cuu-ho-orange-thumb.jpg","poster_url":"linh-cuu-hoa-daigo-nguoi-cuu-ho-orange-poster.jpg","year":2023},{"modified":{"time":"2023-12-16T20:27:30.000Z"},"_id":"65548780aa7d07ce5c879e77","name":"Người Yêu Của Tôi Là Thần Tình Yêu","slug":"nguoi-yeu-cua-toi-la-than-tinh-yeu","origin_name":"My Man Is Cupid","thumb_url":"nguoi-yeu-cua-toi-la-than-tinh-yeu-thumb.jpg","poster_url":"nguoi-yeu-cua-toi-la-than-tinh-yeu-poster.jpg","year":2023},{"modified":{"time":"2023-12-16T20:27:16.000Z"},"_id":"6567687aaa7d07ce5caaa2da","name":"Kỉ Niệm Tuổi Thanh Xuân","slug":"ki-niem-tuoi-thanh-xuan","origin_name":"Boyhood","thumb_url":"ki-niem-tuoi-thanh-xuan-thumb.jpg","poster_url":"ki-niem-tuoi-thanh-xuan-poster.jpg","year":2023},{"modified":{"time":"2023-12-16T20:21:27.000Z"},"_id":"657da455efed8b7739afe900","name":"Đứng Đầu Luật Pháp","slug":"dung-dau-luat-phap","origin_name":"Above the Law","thumb_url":"dung-dau-luat-phap-thumb.jpg","poster_url":"dung-dau-luat-phap-poster.jpg","year":1988},{"modified":{"time":"2023-12-16T20:20:29.000Z"},"_id":"657da41befed8b7739afe106","name":"Hắc Hiệp 2","slug":"hac-hiep-2","origin_name":"Black Mask 2: City of Masks","thumb_url":"hac-hiep-2-thumb.jpg","poster_url":"hac-hiep-2-poster.jpg","year":2002},{"modified":{"time":"2023-12-16T20:19:43.000Z"},"_id":"657da3edefed8b7739afd7d3","name":"Hoàng Phi Hồng thách đấu Lục A Thái","slug":"hoang-phi-hong-thach-dau-luc-a-thai","origin_name":"Challenge of the Masters","thumb_url":"hoang-phi-hong-thach-dau-luc-a-thai-thumb.jpg","poster_url":"hoang-phi-hong-thach-dau-luc-a-thai-poster.jpg","year":1976},{"modified":{"time":"2023-12-16T20:18:41.000Z"},"_id":"657da3af2f36c295ed2f346a","name":"Liệt Hoả Chiến Xa ","slug":"liet-hoa-chien-xa","origin_name":"Liệt Hoả Chiến Xa ","thumb_url":"liet-hoa-chien-xa-thumb.jpg","poster_url":"liet-hoa-chien-xa-poster.jpg","year":1995},{"modified":{"time":"2023-12-16T20:15:16.000Z"},"_id":"657da2e12f36c295ed2f1e10","name":"Hương Cảng Kỳ Binh 2","slug":"huong-cang-ky-binh-2","origin_name":"Long Arm of the Law II","thumb_url":"huong-cang-ky-binh-2-thumb.jpg","poster_url":"huong-cang-ky-binh-2-poster.jpg","year":1987},{"modified":{"time":"2023-12-16T20:14:08.000Z"},"_id":"657da29eefed8b7739afb080","name":"Hương Cảng Kỳ Binh ","slug":"huong-cang-ky-binh","origin_name":"Long Arm of the Law","thumb_url":"huong-cang-ky-binh-thumb.jpg","poster_url":"huong-cang-ky-binh-poster.jpg","year":1984},{"modified":{"time":"2023-12-16T20:12:52.000Z"},"_id":"657da252efed8b7739afa636","name":"Chiến Tranh Băng Đảng ","slug":"chien-tranh-bang-dang","origin_name":"Sonatine","thumb_url":"chien-tranh-bang-dang-thumb.jpg","poster_url":"chien-tranh-bang-dang-poster.jpg","year":1993},{"modified":{"time":"2023-12-16T20:11:50.000Z"},"_id":"657da2142f36c295ed2f0d8f","name":"Đoàn Tụ","slug":"doan-tu","origin_name":"The Return","thumb_url":"doan-tu-thumb.jpg","poster_url":"doan-tu-poster.jpg","year":2003},{"modified":{"time":"2023-12-16T18:56:08.000Z"},"_id":"62287dbdeb35da19972e1696","name":"Xin chào, ba giọt","origin_name":"Hello, Three Drops","thumb_url":"xin-chao-ba-giot-thumb.jpg","slug":"xin-chao-ba-giot","year":2018,"poster_url":"xin-chao-ba-giot-poster.jpg"},{"modified":{"time":"2023-12-16T17:43:23.000Z"},"_id":"6404b7820fc1635bd467951c","name":"Cầm Tù","slug":"cam-tu","origin_name":"Esaret","thumb_url":"cam-tu-thumb.jpg","poster_url":"cam-tu-poster.jpg","year":2022},{"modified":{"time":"2023-12-16T17:30:44.000Z"},"_id":"6227626aeb35da19972e01e7","name":"Trời sáng rồi, ta ngủ đi thôi","origin_name":"Good Morning and Good Night","thumb_url":"troi-sang-roi-ta-ngu-di-thoi-thumb.jpg","slug":"troi-sang-roi-ta-ngu-di-thoi","year":2019,"poster_url":"troi-sang-roi-ta-ngu-di-thoi-poster.jpg"},{"modified":{"time":"2023-12-16T17:15:20.000Z"},"_id":"657a8d992f36c295ed24eba3","name":"Chệch Quỹ Đạo","slug":"chech-quy-dao","origin_name":"Derailment","thumb_url":"chech-quy-dao-thumb.jpg","poster_url":"chech-quy-dao-poster.jpg","year":2023},{"modified":{"time":"2023-12-16T17:09:44.000Z"},"_id":"6576d3c22f36c295ed12b8fa","name":"Thần Ẩn","slug":"than-an","origin_name":"The Last Immortal","thumb_url":"than-an-thumb.jpg","poster_url":"than-an-poster.jpg","year":2023},{"modified":{"time":"2023-12-16T17:08:15.000Z"},"_id":"65714f292f36c295ed085509","name":"Quyến Luyến Hồng Trần","slug":"quyen-luyen-hong-tran","origin_name":"Got a Crush on You","thumb_url":"quyen-luyen-hong-tran-thumb.jpg","poster_url":"quyen-luyen-hong-tran-poster.jpg","year":2023},{"modified":{"time":"2023-12-16T17:05:56.000Z"},"_id":"656895e803f63c57cbbb0d44","name":"Đấu Phá Thương Khung (Phần 2)","slug":"dau-pha-thuong-khung-phan-2","origin_name":"Fights Break Sphere Season 2","thumb_url":"dau-pha-thuong-khung-phan-2-thumb.jpg","poster_url":"dau-pha-thuong-khung-phan-2-poster.jpg","year":2023},{"modified":{"time":"2023-12-16T17:01:48.000Z"},"_id":"65687f38aa7d07ce5caccb0f","name":"Rất Nhớ, Rất Nhớ Anh","slug":"rat-nho-rat-nho-anh","origin_name":"Love Me, Love My Voice","thumb_url":"rat-nho-rat-nho-anh-thumb.jpg","poster_url":"rat-nho-rat-nho-anh-poster.jpg","year":2023},{"modified":{"time":"2023-12-16T15:55:37.000Z"},"_id":"657af065efed8b7739a64905","name":"Hồng Nhan Lệnh","slug":"hong-nhan-lenh","origin_name":"Her Revenge","thumb_url":"hong-nhan-lenh-thumb.jpg","poster_url":"hong-nhan-lenh-poster.jpg","year":2023},{"modified":{"time":"2023-12-16T15:44:29.000Z"},"_id":"657d40862f36c295ed2b147e","name":"Bước Chân Thép","slug":"buoc-chan-thep","origin_name":"Road to Boston","thumb_url":"buoc-chan-thep-thumb.jpg","poster_url":"buoc-chan-thep-poster.jpg","year":2023},{"modified":{"time":"2023-12-16T15:17:41.000Z"},"_id":"653b74f9aab68118a3b76d78","name":"Thiếu Niên Ca Hành Phần 3","slug":"thieu-nien-ca-hanh-phan-3","origin_name":"少年歌行 第三季","thumb_url":"thieu-nien-ca-hanh-phan-3-thumb.jpg","poster_url":"thieu-nien-ca-hanh-phan-3-poster.jpg","year":2023}],"pathImage":"https://img.ophim9.cc/uploads/movies/","pagination":{"totalItems":24970,"totalItemsPerPage":24,"currentPage":1,"totalPages":1041}}