{"status":true,"items":[{"modified":{"time":"2023-12-21T15:21:32.000Z"},"_id":"651d8f5eaab68118a3a556f4","name":"Ta Muốn Trở Thành Chúa Tể Bóng Tối (Phần 2)","slug":"ta-muon-tro-thanh-chua-te-bong-toi-phan-2","origin_name":"陰の実力者になりたくて！ 2nd season","thumb_url":"ta-muon-tro-thanh-chua-te-bong-toi-phan-2-thumb.jpg","poster_url":"ta-muon-tro-thanh-chua-te-bong-toi-phan-2-poster.jpg","year":2023},{"modified":{"time":"2023-12-21T15:21:23.000Z"},"_id":"651d90afe2f0dc639fc4f0da","name":"Tôi Nhặt Được 1 Cô Gái Và Biến Cô Ấy Trở Thành Người Hạnh Phúc Nhất Thế Gian!","slug":"toi-nhat-duoc-1-co-gai-va-bien-co-ay-tro-thanh-nguoi-hanh-phuc-nhat-the-gian","origin_name":"Tôi Nhặt Được 1 Cô Gái Và Biến Cô Ấy Trở Thành Người Hạnh Phúc Nhất Thế Gian!","thumb_url":"toi-nhat-duoc-1-co-gai-va-bien-co-ay-tro-thanh-nguoi-hanh-phuc-nhat-the-gian-thumb.jpg","poster_url":"toi-nhat-duoc-1-co-gai-va-bien-co-ay-tro-thanh-nguoi-hanh-phuc-nhat-the-gian-poster.jpg","year":2023},{"modified":{"time":"2023-12-21T13:24:05.000Z"},"_id":"6581b2bfefed8b7739c9c566","name":"Đêm Yên Lặng","slug":"dem-yen-lang","origin_name":"Silent Night","thumb_url":"dem-yen-lang-thumb.jpg","poster_url":"dem-yen-lang-poster.jpg","year":2023},{"modified":{"time":"2023-12-21T13:12:08.000Z"},"_id":"657047f0efed8b773985cc34","name":"Thanh Tước Thành Hoàng","slug":"thanh-tuoc-thanh-hoang","origin_name":"Rising Feather","thumb_url":"thanh-tuoc-thanh-hoang-thumb.jpg","poster_url":"thanh-tuoc-thanh-hoang-poster.jpg","year":2023},{"modified":{"time":"2023-12-20T23:22:16.000Z"},"_id":"658314b1efed8b7739d264aa","name":"Christmas with the Kranks","slug":"christmas-with-the-kranks","origin_name":"Christmas with the Kranks","thumb_url":"christmas-with-the-kranks-thumb.jpg","poster_url":"christmas-with-the-kranks-poster.jpg","year":2004},{"modified":{"time":"2023-12-20T23:21:23.000Z"},"_id":"65831480efed8b7739d25fd2","name":"Bảo Tiêu ","slug":"bao-tieu","origin_name":"Bảo Tiêu ","thumb_url":"bao-tieu-thumb.jpg","poster_url":"bao-tieu-poster.jpg","year":1969},{"modified":{"time":"2023-12-20T23:17:14.000Z"},"_id":"658313872f36c295ed520d10","name":"Những Đôi Giày Máu ","slug":"nhung-doi-giay-mau","origin_name":"Những Đôi Giày Máu ","thumb_url":"nhung-doi-giay-mau-thumb.jpg","poster_url":"nhung-doi-giay-mau-poster.jpg","year":1996},{"modified":{"time":"2023-12-20T23:13:25.000Z"},"_id":"658312a3efed8b7739d23725","name":"Mẹ Ma","slug":"me-ma","origin_name":"Mama","thumb_url":"me-ma-thumb.jpg","poster_url":"me-ma-poster.jpg","year":2013},{"modified":{"time":"2023-12-20T23:11:49.000Z"},"_id":"65825d38efed8b7739d01cb9","name":"Bí Mật Sau Bức Màn Thưa","slug":"bi-mat-sau-buc-man-thua","origin_name":"A Man in a Veil","thumb_url":"bi-mat-sau-buc-man-thua-thumb.jpg","poster_url":"bi-mat-sau-buc-man-thua-poster.jpg","year":2020},{"modified":{"time":"2023-12-20T22:44:57.000Z"},"_id":"6562f87903f63c57cbb04375","name":"Màn Đêm Kinh Hoàng","slug":"man-dem-kinh-hoang","origin_name":"Night Has Come","thumb_url":"man-dem-kinh-hoang-thumb.jpg","poster_url":"man-dem-kinh-hoang-poster.jpg","year":2023},{"modified":{"time":"2023-12-20T22:39:15.000Z"},"_id":"654286c61e9ad2fe0c5a6088","name":"Trăng Lên Ban Ngày","slug":"trang-len-ban-ngay","origin_name":"Moon in the Day","thumb_url":"trang-len-ban-ngay-thumb.jpg","poster_url":"trang-len-ban-ngay-poster.jpg","year":2023},{"modified":{"time":"2023-12-20T16:22:20.000Z"},"_id":"6582b1f12f36c295ed50c5d5","name":"Cuộc chiến tỏ tình (Phần 3)","slug":"cuoc-chien-to-tinh-phan-3","origin_name":"Kaguya-sama: Love Is War (Season 3)","thumb_url":"cuoc-chien-to-tinh-phan-3-thumb.jpg","poster_url":"cuoc-chien-to-tinh-phan-3-poster.jpg","year":2022},{"modified":{"time":"2023-12-20T16:22:15.000Z"},"_id":"6582b1b6efed8b7739d0f712","name":"Cuộc chiến tỏ tình (Phần 2)","slug":"cuoc-chien-to-tinh-phan-2","origin_name":"Kaguya-sama: Love Is War (Season 2)","thumb_url":"cuoc-chien-to-tinh-phan-2-thumb.jpg","poster_url":"cuoc-chien-to-tinh-phan-2-poster.jpg","year":2020},{"modified":{"time":"2023-12-20T16:22:10.000Z"},"_id":"628db3e59e983cdfde42a836","name":"Cuộc chiến tỏ tình","origin_name":"Kaguya-sama: Love Is War","thumb_url":"cuoc-chien-to-tinh-thumb.jpg","poster_url":"cuoc-chien-to-tinh-poster.jpg","slug":"cuoc-chien-to-tinh","year":2019},{"modified":{"time":"2023-12-20T16:21:58.000Z"},"_id":"6582b233efed8b7739d0fc79","name":"Cuộc chiến tỏ tình (Phần 4)","slug":"cuoc-chien-to-tinh-phan-4","origin_name":"Kaguya-sama: Love Is War (Season 4)","thumb_url":"cuoc-chien-to-tinh-phan-4-thumb.jpg","poster_url":"cuoc-chien-to-tinh-phan-4-poster.jpg","year":2023},{"modified":{"time":"2023-12-20T15:32:26.000Z"},"_id":"650713d4fe8e2316c07eff1c","name":"Người Nào Đó","slug":"nguoi-nao-do","origin_name":"Bambaşka Biri","thumb_url":"nguoi-nao-do-thumb.jpg","poster_url":"nguoi-nao-do-poster.jpg","year":2023},{"modified":{"time":"2023-12-20T15:31:37.000Z"},"_id":"6582a669efed8b7739d0d2ab","name":"Con Tàu Tinh Hoa","slug":"con-tau-tinh-hoa","origin_name":"Finestkind","thumb_url":"con-tau-tinh-hoa-thumb.jpg","poster_url":"con-tau-tinh-hoa-poster.jpg","year":2023},{"modified":{"time":"2023-12-20T15:02:21.000Z"},"_id":"65829f8defed8b7739d0bd31","name":"Walid","slug":"walid","origin_name":"Walid","thumb_url":"walid-thumb.jpg","poster_url":"walid-poster.jpg","year":2023},{"modified":{"time":"2023-12-20T15:01:44.000Z"},"_id":"65829f682f36c295ed5085d1","name":"Tôi yêu Lizzy","slug":"toi-yeu-lizzy","origin_name":"I Love Lizzy","thumb_url":"toi-yeu-lizzy-thumb.jpg","poster_url":"toi-yeu-lizzy-poster.jpg","year":2023},{"modified":{"time":"2023-12-20T15:01:08.000Z"},"_id":"65829f44efed8b7739d0b9de","name":"Ô! Giáng sinh","slug":"o-giang-sinh","origin_name":"Yoh! Christmas","thumb_url":"o-giang-sinh-thumb.jpg","poster_url":"o-giang-sinh-poster.jpg","year":2023},{"modified":{"time":"2023-12-20T15:00:27.000Z"},"_id":"65829f1befed8b7739d0b7aa","name":"Nếu tôi là Luísa Sonza","slug":"neu-toi-la-luisa-sonza","origin_name":"If I Were Luísa Sonza","thumb_url":"neu-toi-la-luisa-sonza-thumb.jpg","poster_url":"neu-toi-la-luisa-sonza-poster.jpg","year":2023},{"modified":{"time":"2023-12-20T14:59:42.000Z"},"_id":"65829eee2f36c295ed508014","name":"Kevin Hart &amp; Chris Rock: Chỉ diễn chính","slug":"kevin-hart-andamp-chris-rock-chi-dien-chinh","origin_name":"Kevin Hart & Chris Rock: Headliners Only","thumb_url":"kevin-hart-andamp;-chris-rock-chi-dien-chinh-thumb.jpg","poster_url":"kevin-hart-andamp;-chris-rock-chi-dien-chinh-poster.jpg","year":2023},{"modified":{"time":"2023-12-20T14:58:56.000Z"},"_id":"65829ec0efed8b7739d0b3f7","name":"Familia","slug":"familia","origin_name":"Familia","thumb_url":"familia-thumb.jpg","poster_url":"familia-poster.jpg","year":2023},{"modified":{"time":"2023-12-20T14:58:12.000Z"},"_id":"65829e942f36c295ed507c87","name":"Dưới áp lực: Đội tuyển World Cup nữ Hoa Kỳ","slug":"duoi-ap-luc-doi-tuyen-world-cup-nu-hoa-ky","origin_name":"Under Pressure: The U.S. Women's World Cup Team","thumb_url":"duoi-ap-luc-doi-tuyen-world-cup-nu-hoa-ky-thumb.jpg","poster_url":"duoi-ap-luc-doi-tuyen-world-cup-nu-hoa-ky-poster.jpg","year":2023}],"pathImage":"https://img.ophim10.cc/uploads/movies/","pagination":{"totalItems":25103,"totalItemsPerPage":24,"currentPage":9,"totalPages":1046}}