{"status":true,"items":[{"modified":{"time":"2023-12-05T19:41:38.000Z"},"_id":"656f1a7e03f63c57cbc81738","name":"Chúng Tôi Đơn Giản Là Gấu Con (Phần 2)","slug":"chung-toi-don-gian-la-gau-con-phan-2","origin_name":"We Baby Bears Season 2","thumb_url":"chung-toi-don-gian-la-gau-con-phan-2-thumb.jpg","poster_url":"chung-toi-don-gian-la-gau-con-phan-2-poster.jpg","year":2023},{"modified":{"time":"2023-12-05T14:27:07.000Z"},"_id":"656ed0cbaa7d07ce5cb9772a","name":"Vương Bài Thế Thân","slug":"vuong-bai-the-than","origin_name":"Super Daddy","thumb_url":"vuong-bai-the-than-thumb.jpg","poster_url":"vuong-bai-the-than-poster.jpg","year":2023},{"modified":{"time":"2023-12-05T14:26:27.000Z"},"_id":"656ed0a3aa7d07ce5cb974a8","name":"Trúng Tà","slug":"trung-ta","origin_name":"Headless","thumb_url":"trung-ta-thumb.jpg","poster_url":"trung-ta-poster.jpg","year":2023},{"modified":{"time":"2023-12-05T14:25:43.000Z"},"_id":"656ed077aa7d07ce5cb9717b","name":"Phong Thần Diễn Nghĩa: Trảm Tiên Phi Đao","slug":"phong-than-dien-nghia-tram-tien-phi-dao","origin_name":"The dagger of kill celestial being","thumb_url":"phong-than-dien-nghia-tram-tien-phi-dao-thumb.jpg","poster_url":"phong-than-dien-nghia-tram-tien-phi-dao-poster.jpg","year":2023},{"modified":{"time":"2023-12-05T14:24:45.000Z"},"_id":"656ed03d03f63c57cbc7581c","name":"Phong Khởi Lạc Dương: Song Tử Truy Hung","slug":"phong-khoi-lac-duong-song-tu-truy-hung","origin_name":"Gemini Mission","thumb_url":"phong-khoi-lac-duong-song-tu-truy-hung-thumb.jpg","poster_url":"phong-khoi-lac-duong-song-tu-truy-hung-poster.jpg","year":2023},{"modified":{"time":"2023-12-05T14:24:11.000Z"},"_id":"656ed01baa7d07ce5cb96b44","name":"Khu Rừng Kỳ Quái","slug":"khu-rung-ky-quai","origin_name":"The Weird Forest","thumb_url":"khu-rung-ky-quai-thumb.jpg","poster_url":"khu-rung-ky-quai-poster.jpg","year":2023},{"modified":{"time":"2023-12-05T14:23:45.000Z"},"_id":"656ed001aa7d07ce5cb9695d","name":"Hoàng Hà Thủ Mộ Nhân","slug":"hoang-ha-thu-mo-nhan","origin_name":"TOMB KEEPER","thumb_url":"hoang-ha-thu-mo-nhan-thumb.jpg","poster_url":"hoang-ha-thu-mo-nhan-poster.jpg","year":2023},{"modified":{"time":"2023-12-04T22:05:02.000Z"},"_id":"656dea9c03f63c57cbc5fed8","name":"Bang Phái Phong Vân ","slug":"bang-phai-phong-van","origin_name":"The Upheaval ","thumb_url":"bang-phai-phong-van-thumb.jpg","poster_url":"bang-phai-phong-van-poster.jpg","year":1986},{"modified":{"time":"2023-12-04T21:57:19.000Z"},"_id":"656de8ce03f63c57cbc5f549","name":"Phi Tinh Tầm Long","slug":"phi-tinh-tam-long","origin_name":"The Predictons Game","thumb_url":"phi-tinh-tam-long-thumb.jpg","poster_url":"phi-tinh-tam-long-poster.jpg","year":1993},{"modified":{"time":"2023-12-04T21:48:43.000Z"},"_id":"656de6c803f63c57cbc5eb7e","name":"The One-Armed Swordsman","slug":"the-one-armed-swordsman","origin_name":"The One-Armed Swordsman","thumb_url":"the-one-armed-swordsman-thumb.jpg","poster_url":"the-one-armed-swordsman-poster.jpg","year":1967},{"modified":{"time":"2023-12-04T21:47:37.000Z"},"_id":"656de68703f63c57cbc5e89b","name":"Return of the One-Armed Swordsman ","slug":"return-of-the-one-armed-swordsman","origin_name":"Return of the One-Armed Swordsman ","thumb_url":"return-of-the-one-armed-swordsman-thumb.jpg","poster_url":"return-of-the-one-armed-swordsman-poster.jpg","year":1969},{"modified":{"time":"2023-12-04T21:44:33.000Z"},"_id":"656de5cfaa7d07ce5cb7f681","name":"The New One-Armed Swordsman","slug":"the-new-one-armed-swordsman","origin_name":"The New One-Armed Swordsman","thumb_url":"the-new-one-armed-swordsman-thumb.jpg","poster_url":"the-new-one-armed-swordsman-poster.jpg","year":1971},{"modified":{"time":"2023-12-04T21:35:35.000Z"},"_id":"656de3b503f63c57cbc5d930","name":"Zatoichi Meets the One-Armed Swordsman","slug":"zatoichi-meets-the-one-armed-swordsman","origin_name":"Zatoichi Meets the One-Armed Swordsman","thumb_url":"zatoichi-meets-the-one-armed-swordsman-thumb.jpg","poster_url":"zatoichi-meets-the-one-armed-swordsman-poster.jpg","year":1971},{"modified":{"time":"2023-12-04T21:32:25.000Z"},"_id":"656de2f7aa7d07ce5cb7e8de","name":"Đệ Tử Thiếu Lâm Tam Thập Lục Phòng ","slug":"de-tu-thieu-lam-tam-thap-luc-phong","origin_name":"Đệ Tử Thiếu Lâm Tam Thập Lục Phòng ","thumb_url":"de-tu-thieu-lam-tam-thap-luc-phong-thumb.jpg","poster_url":"de-tu-thieu-lam-tam-thap-luc-phong-poster.jpg","year":1985},{"modified":{"time":"2023-12-04T21:28:58.000Z"},"_id":"656de229aa7d07ce5cb7e19c","name":"Trở Lại Thiếu Lâm Tam Thập Lục Phòng","slug":"tro-lai-thieu-lam-tam-thap-luc-phong","origin_name":"Trở Lại Thiếu Lâm Tam Thập Lục Phòng","thumb_url":"tro-lai-thieu-lam-tam-thap-luc-phong-thumb.jpg","poster_url":"tro-lai-thieu-lam-tam-thap-luc-phong-poster.jpg","year":1980},{"modified":{"time":"2023-12-04T21:24:03.000Z"},"_id":"656de10003f63c57cbc5c55b","name":"Sex And The Emperor","slug":"sex-and-the-emperor","origin_name":"Mãn Thanh Cấm Cung Kỳ Án","thumb_url":"sex-and-the-emperor-thumb.jpg","poster_url":"sex-and-the-emperor-poster.jpg","year":1994},{"modified":{"time":"2023-12-04T21:19:55.000Z"},"_id":"656de00903f63c57cbc5bf02","name":"Kẻ Tình Nghi - Under Suspicion","slug":"ke-tinh-nghi-under-suspicion","origin_name":"Under Suspicion","thumb_url":"ke-tinh-nghi-under-suspicion-thumb.jpg","poster_url":"ke-tinh-nghi-under-suspicion-poster.jpg","year":1991},{"modified":{"time":"2023-12-04T20:33:55.000Z"},"_id":"656dcae203f63c57cbc58bee","name":"Địch Nhân Kiệt: Tu La Bất Tử","slug":"dich-nhan-kiet-tu-la-bat-tu","origin_name":"Di Renjie: The Deathless Shura","thumb_url":"dich-nhan-kiet-tu-la-bat-tu-thumb.jpg","poster_url":"dich-nhan-kiet-tu-la-bat-tu-poster.jpg","year":2022},{"modified":{"time":"2023-12-04T20:33:25.000Z"},"_id":"656dd52503f63c57cbc5a769","name":"Godzilla x Kong: Đế Chế Mới","slug":"godzilla-x-kong-de-che-moi","origin_name":"Godzilla x Kong: The New Empire","thumb_url":"godzilla-x-kong-de-che-moi-thumb.jpg","poster_url":"godzilla-x-kong-de-che-moi-poster.jpg","year":2024},{"modified":{"time":"2023-12-04T18:19:16.000Z"},"_id":"656db32d03f63c57cbc55316","name":"Nữ Hoàng Ve Sầu","slug":"nu-hoang-ve-sau","origin_name":"In My Mother's Skin","thumb_url":"nu-hoang-ve-sau-thumb.jpg","poster_url":"nu-hoang-ve-sau-poster.jpg","year":2023},{"modified":{"time":"2023-12-04T18:05:48.000Z"},"_id":"656db0cc03f63c57cbc53e22","name":"Phản Công Nhanh","slug":"phan-cong-nhanh","origin_name":"Quick Counterattack","thumb_url":"phan-cong-nhanh-thumb.jpg","poster_url":"phan-cong-nhanh-poster.jpg","year":2023},{"modified":{"time":"2023-12-04T14:46:47.000Z"},"_id":"6544f9d703f63c57cb798b79","name":"Dĩ Ái Vi Doanh","slug":"di-ai-vi-doanh","origin_name":"Only for Love","thumb_url":"di-ai-vi-doanh-thumb.jpg","poster_url":"di-ai-vi-doanh-poster.jpg","year":2023},{"modified":{"time":"2023-12-04T13:41:31.000Z"},"_id":"6554ff7203f63c57cb971d0d","name":"Anh Jade: Người Trung Gian","slug":"anh-jade-nguoi-trung-gian","origin_name":"The Middleman's Love (UNCUT)","thumb_url":"anh-jade-nguoi-trung-gian-thumb.jpg","poster_url":"anh-jade-nguoi-trung-gian-poster.jpg","year":2023},{"modified":{"time":"2023-12-04T13:39:09.000Z"},"_id":"653d2a06fe8e2316c09ef867","name":"Oppa Xã Hội Đen Thân Yêu","slug":"oppa-xa-hoi-den-than-yeu","origin_name":"My Dear Gangster Oppa","thumb_url":"oppa-xa-hoi-den-than-yeu-thumb.jpg","poster_url":"oppa-xa-hoi-den-than-yeu-poster.jpg","year":2023}],"pathImage":"https://img.ophim9.cc/uploads/movies/","pagination":{"totalItems":24978,"totalItemsPerPage":24,"currentPage":16,"totalPages":1041}}