{"status":true,"items":[{"modified":{"time":"2023-12-15T18:01:08.000Z"},"_id":"657b00162f36c295ed264e40","name":"Trò Chơi Sống Còn","slug":"tro-choi-song-con","origin_name":"Fatal Rule","thumb_url":"tro-choi-song-con-thumb.jpg","poster_url":"tro-choi-song-con-poster.jpg","year":2023},{"modified":{"time":"2023-12-15T17:31:21.000Z"},"_id":"657c2245efed8b7739a8fe4b","name":"Phi đội gà bay 2: Âm mưu gà nugget","slug":"phi-doi-ga-bay-2-am-muu-ga-nugget","origin_name":"Chicken Run: Dawn of the Nugget","thumb_url":"phi-doi-ga-bay-2-am-muu-ga-nugget-thumb.jpg","poster_url":"phi-doi-ga-bay-2-am-muu-ga-nugget-poster.jpg","year":2023},{"modified":{"time":"2023-12-15T17:23:42.000Z"},"_id":"65210d6160ad693b7ca0c38e","name":"Under Ninja","slug":"under-ninja","origin_name":"UNDER NINJA","thumb_url":"under-ninja-thumb.jpg","poster_url":"under-ninja-poster.jpg","year":2023},{"modified":{"time":"2023-12-15T17:13:29.000Z"},"_id":"657c1d6b2f36c295ed28c3d5","name":"Kế Hoạch Bảo Vệ Gia Đình","slug":"ke-hoach-bao-ve-gia-dinh","origin_name":"The Family Plan","thumb_url":"ke-hoach-bao-ve-gia-dinh-thumb.jpg","poster_url":"ke-hoach-bao-ve-gia-dinh-poster.jpg","year":2023},{"modified":{"time":"2023-12-15T16:56:01.000Z"},"_id":"64147f7e72b9a838f842fcf9","name":"Chim Lửa","slug":"chim-lua-tho-nhi-ky","origin_name":"Ateş Kuşları","thumb_url":"chim-lua-tho-nhi-ky-thumb.jpg","poster_url":"chim-lua-tho-nhi-ky-poster.jpg","year":2023},{"modified":{"time":"2023-12-15T16:55:44.000Z"},"_id":"655af363aa7d07ce5c940435","name":"Cô Dâu Istanbul","slug":"co-dau-instabul","origin_name":"Istanbullu Gelin","thumb_url":"co-dau-instabul-thumb.jpg","poster_url":"co-dau-instabul-poster.jpg","year":2017},{"modified":{"time":"2023-12-15T16:55:28.000Z"},"_id":"6549cb4caa7d07ce5c74d354","name":"Không Một Ai Biết","slug":"khong-mot-ai-biet-tnk","origin_name":"Kimse Bilmez","thumb_url":"khong-mot-ai-biet-tnk-thumb.jpg","poster_url":"khong-mot-ai-biet-tnk-poster.jpg","year":2019},{"modified":{"time":"2023-12-15T16:21:01.000Z"},"_id":"657c1a7d2f36c295ed28b2b2","name":"Kamen Rider Gotchard","slug":"kamen-rider-gotchard","origin_name":"Kamen Rider Gotchard","thumb_url":"kamen-rider-gotchard-thumb.jpg","poster_url":"kamen-rider-gotchard-poster.jpg","year":2023},{"modified":{"time":"2023-12-15T16:18:27.000Z"},"_id":"65534c2c03f63c57cb938874","name":"Monarch: Thế Giới Quái Thú","slug":"monarch-the-gioi-quai-thu","origin_name":"Monarch: Legacy of Monsters","thumb_url":"monarch-the-gioi-quai-thu-thumb.jpg","poster_url":"monarch-the-gioi-quai-thu-poster.jpg","year":2023},{"modified":{"time":"2023-12-15T16:17:57.000Z"},"_id":"654dc733aa7d07ce5c7b984e","name":"Cuộc Chiến Không Gian (Phần 4)","slug":"cuoc-chien-khong-gian-phan-4","origin_name":"For All Mankind Season 4","thumb_url":"cuoc-chien-khong-gian-phan-4-thumb.jpg","poster_url":"cuoc-chien-khong-gian-phan-4-poster.jpg","year":2023},{"modified":{"time":"2023-12-15T16:15:07.000Z"},"_id":"657c165b2f36c295ed28960e","name":"Đôi Cánh Tham Vọng (Phần 2)","slug":"doi-canh-tham-vong-phan-2","origin_name":"As the Crow Flies Season 2","thumb_url":"doi-canh-tham-vong-phan-2-thumb.jpg","poster_url":"doi-canh-tham-vong-phan-2-poster.jpg","year":2023},{"modified":{"time":"2023-12-15T13:21:33.000Z"},"_id":"6547626baa7d07ce5c7054ee","name":"Câu Chuyện Lúc Nửa Đêm","slug":"cau-chuyen-luc-nua-dem-2023","origin_name":"Goosebumps","thumb_url":"cau-chuyen-luc-nua-dem-2023-thumb.jpg","poster_url":"cau-chuyen-luc-nua-dem-2023-poster.jpg","year":2023},{"modified":{"time":"2023-12-15T11:34:26.000Z"},"_id":"656f0763aa7d07ce5cb9f9b2","name":"Tiểu Nương Tử Đương Gia","slug":"tieu-nuong-tu-duong-gia","origin_name":"Invincible Stepmother","thumb_url":"tieu-nuong-tu-duong-gia-thumb.jpg","poster_url":"tieu-nuong-tu-duong-gia-poster.jpg","year":2023},{"modified":{"time":"2023-12-15T11:23:36.000Z"},"_id":"62a4ced67a956fb5db09cc02","name":"Thôn Tính Bầu Trời","origin_name":"Swallowed Star","thumb_url":"thon-tinh-bau-troi-thumb.jpg","poster_url":"thon-tinh-bau-troi-poster.jpg","slug":"thon-tinh-bau-troi","year":2020},{"modified":{"time":"2023-12-15T11:00:51.000Z"},"_id":"656c410a03f63c57cbc1e6e3","name":"Reacher (Phần 2)","slug":"reacher-phan-2","origin_name":"Reacher Season 2","thumb_url":"reacher-phan-2-thumb.jpg","poster_url":"reacher-phan-2-poster.jpg","year":2023},{"modified":{"time":"2023-12-14T22:40:26.000Z"},"_id":"65795600efed8b7739a29591","name":"Hành trình U Linh Giới","slug":"hanh-trinh-u-linh-gioi","origin_name":"Yu Yu Hakusho","thumb_url":"hanh-trinh-u-linh-gioi-thumb.jpg","poster_url":"hanh-trinh-u-linh-gioi-poster.jpg","year":2023},{"modified":{"time":"2023-12-14T22:13:53.000Z"},"_id":"657b1bafefed8b7739a6ce0b","name":"Tình Sử Angelique","slug":"tinh-su-angelique","origin_name":"Angelique","thumb_url":"tinh-su-angelique-thumb.jpg","poster_url":"tinh-su-angelique-poster.jpg","year":2013},{"modified":{"time":"2023-12-14T22:12:50.000Z"},"_id":"657b1b712f36c295ed26a432","name":"Cuộc Gặp Gỡ ở Shinjuku ","slug":"cuoc-gap-go-o-shinjuku","origin_name":"Brief Encounter In Shinjuku","thumb_url":"cuoc-gap-go-o-shinjuku-thumb.jpg","poster_url":"cuoc-gap-go-o-shinjuku-poster.jpg","year":1990},{"modified":{"time":"2023-12-14T22:11:48.000Z"},"_id":"657b1b322f36c295ed26a18e","name":"Căn Nhà Khoái Lạc ","slug":"can-nha-khoai-lac","origin_name":"House of Pleasures","thumb_url":"can-nha-khoai-lac-thumb.jpg","poster_url":"can-nha-khoai-lac-poster.jpg","year":2011},{"modified":{"time":"2023-12-14T22:10:17.000Z"},"_id":"657b1ad8efed8b7739a6c50a","name":"Công Phu Đầu Bếp","slug":"cong-phu-dau-bep","origin_name":"Công Phu Đầu Bếp","thumb_url":"cong-phu-dau-bep-thumb.jpg","poster_url":"cong-phu-dau-bep-poster.jpg","year":2009},{"modified":{"time":"2023-12-14T22:07:01.000Z"},"_id":"657b1a13efed8b7739a6bee1","name":"Bánh Bao Nhân Thịt Người ","slug":"banh-bao-nhan-thit-nguoi","origin_name":"The Untold Story","thumb_url":"banh-bao-nhan-thit-nguoi-thumb.jpg","poster_url":"banh-bao-nhan-thit-nguoi-poster.jpg","year":1993},{"modified":{"time":"2023-12-14T22:02:59.000Z"},"_id":"657b191fefed8b7739a6b868","name":"Đả Công Hoàng Đế ","slug":"da-cong-hoang-de","origin_name":"Working Class ","thumb_url":"da-cong-hoang-de-thumb.jpg","poster_url":"da-cong-hoang-de-poster.jpg","year":1985},{"modified":{"time":"2023-12-14T21:26:03.000Z"},"_id":"654286c61e9ad2fe0c5a6088","name":"Trăng Lên Ban Ngày","slug":"trang-len-ban-ngay","origin_name":"Moon in the Day","thumb_url":"trang-len-ban-ngay-thumb.jpg","poster_url":"trang-len-ban-ngay-poster.jpg","year":2023},{"modified":{"time":"2023-12-14T20:14:03.000Z"},"_id":"655620c503f63c57cb98c845","name":"Hoàng Quyền (Phần 6)","slug":"hoang-quyen-phan-6","origin_name":"The Crown Season 6","thumb_url":"hoang-quyen-phan-6-thumb.jpg","poster_url":"hoang-quyen-phan-6-poster.jpg","year":2023}],"pathImage":"https://img.ophim9.cc/uploads/movies/","pagination":{"totalItems":24970,"totalItemsPerPage":24,"currentPage":4,"totalPages":1041}}