{"status":true,"items":[{"modified":{"time":"2022-03-07T13:10:08.276Z"},"_id":"62260430eb35da19972dcf27","name":"Bảo mẫu phù thủy 2","origin_name":"Nanny McPhee and the Big Bang","thumb_url":"bao-mau-phu-thuy-2-thumb.jpg","slug":"bao-mau-phu-thuy-2","year":2010,"poster_url":""},{"modified":{"time":"2022-03-07T13:09:54.318Z"},"_id":"62260422eb35da19972dcf00","name":"Thánh bài 2","origin_name":"God of Gamblers II","thumb_url":"thanh-bai-2-thumb.jpg","slug":"thanh-bai-2","year":1990,"poster_url":""},{"modified":{"time":"2022-03-07T13:09:41.392Z"},"_id":"62260415eb35da19972dcee2","name":"Cô dâu chạy trốn 2017","origin_name":"Runaway Bride","thumb_url":"co-dau-chay-tron-2017-thumb.jpg","slug":"co-dau-chay-tron-2017","year":2017,"poster_url":""},{"modified":{"time":"2022-03-07T13:09:30.843Z"},"_id":"6226040aeb35da19972dced4","name":"Madagascar","origin_name":"Madagascar","thumb_url":"madagascar-thumb.jpg","slug":"madagascar","year":2005,"poster_url":""},{"modified":{"time":"2022-03-07T13:09:24.471Z"},"_id":"62260404eb35da19972dceae","name":"King Kong","origin_name":"King Kong","thumb_url":"king-kong-thumb.jpg","slug":"king-kong","year":2005,"poster_url":""},{"modified":{"time":"2022-03-07T13:09:11.662Z"},"_id":"622603f7eb35da19972dcea1","name":"Cô dâu rồng","origin_name":"Dragon Bride","thumb_url":"co-dau-rong-thumb.jpg","slug":"co-dau-rong","year":2018,"poster_url":""},{"modified":{"time":"2022-03-07T13:08:40.650Z"},"_id":"622603d8eb35da19972dce78","name":"Cô gái đầu bếp ngọt ngào tình yêu","origin_name":"The Sweet Cook","thumb_url":"co-gai-dau-bep-ngot-ngao-tinh-yeu-thumb.jpg","slug":"co-gai-dau-bep-ngot-ngao-tinh-yeu","year":2017,"poster_url":""},{"modified":{"time":"2022-03-07T13:08:32.041Z"},"_id":"622603d0eb35da19972dce66","name":"Cô dâu đại chiến","origin_name":"Battle of the Brides","thumb_url":"co-dau-dai-chien-thumb.jpg","slug":"co-dau-dai-chien","year":2011,"poster_url":""},{"modified":{"time":"2022-03-07T13:08:13.014Z"},"_id":"622603bdeb35da19972dce1e","name":"Cô gái ngoài hành tinh trên trái đất","origin_name":"Alien Girl on Earth","thumb_url":"co-gai-ngoai-hanh-tinh-tren-trai-dat-thumb.jpg","slug":"co-gai-ngoai-hanh-tinh-tren-trai-dat","year":2018,"poster_url":""},{"modified":{"time":"2022-03-07T13:07:55.373Z"},"_id":"622603abeb35da19972dcdfb","name":"Lời thỉnh cầu Quái vật","origin_name":"A Monster Calls","thumb_url":"loi-thinh-cau-quai-vat-thumb.jpg","slug":"loi-thinh-cau-quai-vat","year":2016,"poster_url":""},{"modified":{"time":"2022-03-07T13:07:43.140Z"},"_id":"6226039feb35da19972dcde6","name":"Cô gái vụng về","origin_name":"Awkward Girl","thumb_url":"co-gai-vung-ve-thumb.jpg","slug":"co-gai-vung-ve","year":2018,"poster_url":""},{"modified":{"time":"2022-03-07T13:07:39.930Z"},"_id":"6226039beb35da19972dcdd5","name":"Vua bọ cạp","origin_name":"The Scorpion King","thumb_url":"vua-bo-cap-thumb.jpg","slug":"vua-bo-cap","year":2002,"poster_url":""},{"modified":{"time":"2022-03-07T13:07:13.854Z"},"_id":"62260381eb35da19972dcdad","name":"Đột kích: Chuộc tội","origin_name":"The Raid: Redemption","thumb_url":"dot-kich-chuoc-toi-thumb.jpg","slug":"dot-kich-chuoc-toi","year":2011,"poster_url":""},{"modified":{"time":"2022-03-07T13:07:12.949Z"},"_id":"62260380eb35da19972dcdab","name":"United 93","origin_name":"United 93","thumb_url":"united-93-thumb.jpg","slug":"united-93","year":2006,"poster_url":""},{"modified":{"time":"2022-03-07T13:07:07.078Z"},"_id":"6226037beb35da19972dcd9d","name":"Có một thanh xuân tên Thi đại học","origin_name":"College Entrance Examination","thumb_url":"co-mot-thanh-xuan-ten-thi-dai-hoc-thumb.jpg","slug":"co-mot-thanh-xuan-ten-thi-dai-hoc","year":2018,"poster_url":""},{"modified":{"time":"2022-03-07T13:06:40.200Z"},"_id":"62260360eb35da19972dcd7f","name":"Trong vòng vây","origin_name":"Under Siege","thumb_url":"trong-vong-vay-thumb.jpg","slug":"trong-vong-vay","year":1992,"poster_url":""},{"modified":{"time":"2022-03-07T13:06:12.100Z"},"_id":"62260344eb35da19972dcd67","name":"Mùa hạ cuối","origin_name":"The Last Summer","thumb_url":"mua-ha-cuoi-thumb.jpg","slug":"mua-ha-cuoi","year":2019,"poster_url":""},{"modified":{"time":"2022-03-07T13:06:09.265Z"},"_id":"62260341eb35da19972dcd5b","name":"Con rể của tôi là một nốt ruồi","origin_name":"My Son-in-law Is A Mole","thumb_url":"con-re-cua-toi-la-mot-not-ruoi-thumb.jpg","slug":"con-re-cua-toi-la-mot-not-ruoi","year":2018,"poster_url":""},{"modified":{"time":"2022-03-07T13:05:40.624Z"},"_id":"62260324eb35da19972dcd34","name":"Nhện trong mạng","origin_name":"Spider in the Web","thumb_url":"nhen-trong-mang-thumb.jpg","slug":"nhen-trong-mang","year":2019,"poster_url":""},{"modified":{"time":"2022-03-07T13:05:39.465Z"},"_id":"62260323eb35da19972dcd28","name":"Conveys tình yêu","origin_name":"Love Conveys","thumb_url":"conveys-tinh-yeu-thumb.jpg","slug":"conveys-tinh-yeu","year":2018,"poster_url":""},{"modified":{"time":"2022-03-07T13:05:00.036Z"},"_id":"622602fceb35da19972dcd10","name":"Cô giáo lắm chiêu","origin_name":"Bad Teacher","thumb_url":"co-giao-lam-chieu-thumb.jpg","slug":"co-giao-lam-chieu","year":2011,"poster_url":""},{"modified":{"time":"2022-03-07T13:04:59.238Z"},"_id":"622602fbeb35da19972dcd05","name":"Cuộc phiêu lưu trong thế giới ma thuật","origin_name":"Adventure in the Magic World","thumb_url":"cuoc-phieu-luu-trong-the-gioi-ma-thuat-thumb.jpg","slug":"cuoc-phieu-luu-trong-the-gioi-ma-thuat","year":2019,"poster_url":""},{"modified":{"time":"2022-03-07T13:04:28.837Z"},"_id":"622602dceb35da19972dccc6","name":"Cuộc thi","origin_name":"the Competition","thumb_url":"cuoc-thi-thumb.jpg","slug":"cuoc-thi","year":2018,"poster_url":""},{"modified":{"time":"2022-03-07T13:04:28.253Z"},"_id":"622602dceb35da19972dccbf","name":"Dương quang phổ chiếu","origin_name":"A Sun","thumb_url":"duong-quang-pho-chieu-thumb.jpg","slug":"duong-quang-pho-chieu","year":2019,"poster_url":""}],"pathImage":"https://img.ophim9.cc/uploads/movies/","pagination":{"totalItems":24970,"totalItemsPerPage":24,"currentPage":1000,"totalPages":1041}}