{"status":true,"items":[{"modified":{"time":"2023-12-12T23:31:17.000Z"},"_id":"65784be12f36c295ed1ea978","name":"Vòng Lặp","slug":"vong-lap-2023","origin_name":"Overlap Knife, Knife (2023 KBS Drama Special Ep 8)","thumb_url":"vong-lap-2023-thumb.jpg","poster_url":"vong-lap-2023-poster.jpg","year":2023},{"modified":{"time":"2023-12-12T22:39:16.000Z"},"_id":"65787e50efed8b7739a195aa","name":"Nhật Nguyệt Thần Kiếm - Phần 1","slug":"nhat-nguyet-than-kiem-phan-1","origin_name":"Nhật Nguyệt Thần Kiếm - Phần 1","thumb_url":"nhat-nguyet-than-kiem-phan-1-thumb.jpg","poster_url":"nhat-nguyet-than-kiem-phan-1-poster.jpg","year":1991},{"modified":{"time":"2023-12-12T22:38:40.000Z"},"_id":"65787cfbefed8b7739a18ed0","name":"Nhật Nguyệt Thần Kiếm - Phần 2","slug":"nhat-nguyet-than-kiem-phan-2","origin_name":"Nhật Nguyệt Thần Kiếm","thumb_url":"nhat-nguyet-than-kiem-phan-2-thumb.jpg","poster_url":"nhat-nguyet-than-kiem-phan-2-poster.jpg","year":1992},{"modified":{"time":"2023-12-12T22:29:37.000Z"},"_id":"65771033efed8b773993e41e","name":"Tỏ Tình Công Lược","slug":"to-tinh-cong-luoc","origin_name":"Love Attack (2023 KBS Drama Special Ep 7)","thumb_url":"to-tinh-cong-luoc-thumb.jpg","poster_url":"to-tinh-cong-luoc-poster.jpg","year":2023},{"modified":{"time":"2023-12-12T22:25:13.000Z"},"_id":"65787b562f36c295ed215186","name":"Nữ Hoàng Tin Tức ","slug":"nu-hoang-tin-tuc","origin_name":"The Queen of News ","thumb_url":"nu-hoang-tin-tuc-thumb.jpg","poster_url":"nu-hoang-tin-tuc-poster.jpg","year":2023},{"modified":{"time":"2023-12-12T22:04:33.000Z"},"_id":"6565bbc3aa7d07ce5ca76162","name":"Yêu như trong phim Hàn","slug":"yeu-nhu-trong-phim-han","origin_name":"Love Like a K-Drama","thumb_url":"yeu-nhu-trong-phim-han-thumb.jpg","poster_url":"yeu-nhu-trong-phim-han-poster.jpg","year":2023},{"modified":{"time":"2023-12-12T21:39:39.000Z"},"_id":"657719ba2f36c295ed14e29d","name":" Tình Yêu Đích Thực Của Phu Nhân","slug":"tinh-yeu-dich-thuc-cua-phu-nhan","origin_name":"The True Love of Madam (2023 KBS Drama Special Ep 6)","thumb_url":"tinh-yeu-dich-thuc-cua-phu-nhan-thumb.jpg","poster_url":"tinh-yeu-dich-thuc-cua-phu-nhan-poster.jpg","year":2023},{"modified":{"time":"2023-12-12T20:43:22.000Z"},"_id":"65784ac42f36c295ed1e8497","name":"Những Kẻ Thờ Ơ","slug":"nhung-ke-tho-o","origin_name":"Anyone, Anywhere (2023 KBS Drama Special Ep 4)","thumb_url":"nhung-ke-tho-o-thumb.jpg","poster_url":"nhung-ke-tho-o-poster.jpg","year":2023},{"modified":{"time":"2023-12-12T19:17:43.000Z"},"_id":"656c4625aa7d07ce5cb41f5a","name":"Vận Mệnh Đôi Bửu","slug":"van-menh-doi-buu","origin_name":"Being Twins","thumb_url":"van-menh-doi-buu-thumb.jpg","poster_url":"van-menh-doi-buu-poster.jpg","year":1992},{"modified":{"time":"2023-12-12T18:59:21.000Z"},"_id":"6577192fefed8b77399496a3","name":"Mùa Hè Nóng Bỏng","slug":"mua-he-nong-bong","origin_name":"Dog Days of Summer (2023 KBS Drama Special Ep 5)","thumb_url":"mua-he-nong-bong-thumb.jpg","poster_url":"mua-he-nong-bong-poster.jpg","year":2023},{"modified":{"time":"2023-12-12T14:00:58.000Z"},"_id":"657715ea2f36c295ed1491cc","name":"Cú Sút Tình Yêu","slug":"cu-sut-tinh-yeu","origin_name":"Shoot for Love (2023 KBS Drama Special Ep 3)","thumb_url":"cu-sut-tinh-yeu-thumb.jpg","poster_url":"cu-sut-tinh-yeu-poster.jpg","year":2023},{"modified":{"time":"2023-12-12T14:00:24.000Z"},"_id":"6577156a2f36c295ed148a0c","name":"Lời Nói Dối Nửa Vời","slug":"nua-loi-noi-doi","origin_name":"Half Lies (2023 KBS Drama Special Ep 2)","thumb_url":"nua-loi-noi-doi-thumb.jpg","poster_url":"nua-loi-noi-doi-poster.jpg","year":2023},{"modified":{"time":"2023-12-12T12:13:42.000Z"},"_id":"6577ec06efed8b77399a195d","name":"Thế chiến II: Lời kể từ tiền tuyến","slug":"the-chien-ii-loi-ke-tu-tien-tuyen","origin_name":"World War II: From the Frontlines","thumb_url":"the-chien-ii-loi-ke-tu-tien-tuyen-thumb.jpg","poster_url":"the-chien-ii-loi-ke-tu-tien-tuyen-poster.jpg","year":2023},{"modified":{"time":"2023-12-12T12:13:07.000Z"},"_id":"6577ebe32f36c295ed1a37ce","name":"The Archies","slug":"the-archies","origin_name":"The Archies","thumb_url":"the-archies-thumb.jpg","poster_url":"the-archies-poster.jpg","year":2023},{"modified":{"time":"2023-12-12T12:12:34.000Z"},"_id":"6577ebc22f36c295ed1a3698","name":"Suzzanna: Lời nguyền đêm thứ Sáu","slug":"suzzanna-loi-nguyen-dem-thu-sau","origin_name":"Suzzanna: Kliwon Friday Night","thumb_url":"suzzanna-loi-nguyen-dem-thu-sau-thumb.jpg","poster_url":"suzzanna-loi-nguyen-dem-thu-sau-poster.jpg","year":2023},{"modified":{"time":"2023-12-12T12:11:59.000Z"},"_id":"6577eb9f2f36c295ed1a3533","name":"Nhật ký giọt sương (Phần 2)","slug":"nhat-ky-giot-suong-phan-2","origin_name":"Dew Drop Diaries (Season 2)","thumb_url":"nhat-ky-giot-suong-phan-2-thumb.jpg","poster_url":"nhat-ky-giot-suong-phan-2-poster.jpg","year":2023},{"modified":{"time":"2023-12-12T12:10:24.000Z"},"_id":"6577eb402f36c295ed1a31e4","name":"Ngang qua bầu trời","slug":"ngang-qua-bau-troi","origin_name":"Across the Sky","thumb_url":"ngang-qua-bau-troi-thumb.jpg","poster_url":"ngang-qua-bau-troi-poster.jpg","year":2023},{"modified":{"time":"2023-12-12T12:09:37.000Z"},"_id":"6577eb112f36c295ed1a3069","name":"NAGA","slug":"naga","origin_name":"NAGA","thumb_url":"naga-thumb.jpg","poster_url":"naga-poster.jpg","year":2023},{"modified":{"time":"2023-12-12T12:09:00.000Z"},"_id":"6577eaec2f36c295ed1a2efd","name":"High Tides","slug":"high-tides","origin_name":"High Tides","thumb_url":"high-tides-thumb.jpg","poster_url":"high-tides-poster.jpg","year":2023},{"modified":{"time":"2023-12-12T01:15:42.000Z"},"_id":"657751caefed8b773998b7e6","name":"Huynh Đệ Giang Hồ ","slug":"huynh-de-giang-ho","origin_name":"Jiang Hu","thumb_url":"huynh-de-giang-ho-thumb.jpg","poster_url":"huynh-de-giang-ho-poster.jpg","year":2004},{"modified":{"time":"2023-12-12T01:12:03.000Z"},"_id":"657750f1efed8b773998a86a","name":"Bạn Tình Nhí Của Tôi ","slug":"ban-tinh-nhi-cua-toi","origin_name":"My Little Sentimental Friend ","thumb_url":"ban-tinh-nhi-cua-toi-thumb.jpg","poster_url":"ban-tinh-nhi-cua-toi-poster.jpg","year":1984},{"modified":{"time":"2023-12-12T01:08:50.000Z"},"_id":"65775030efed8b77399894d5","name":"Cổn Cổn Hồng Trần","slug":"con-con-hong-tran","origin_name":"Red Dust","thumb_url":"con-con-hong-tran-thumb.jpg","poster_url":"con-con-hong-tran-poster.jpg","year":1990},{"modified":{"time":"2023-12-12T01:08:03.000Z"},"_id":"65774ffa2f36c295ed189f3f","name":"Cuộc Chiến Hội Tam Hoàng","slug":"cuoc-chien-hoi-tam-hoang","origin_name":"Triads The Inside Story ","thumb_url":"cuoc-chien-hoi-tam-hoang-thumb.jpg","poster_url":"cuoc-chien-hoi-tam-hoang-poster.jpg","year":1989},{"modified":{"time":"2023-12-12T00:50:15.000Z"},"_id":"65774bd52f36c295ed18451a","name":"Vũ Khí Thể Xác","slug":"vu-khi-the-xac","origin_name":"Body Weapon","thumb_url":"vu-khi-the-xac-thumb.jpg","poster_url":"vu-khi-the-xac-poster.jpg","year":1999}],"pathImage":"https://img.ophim10.cc/uploads/movies/","pagination":{"totalItems":25103,"totalItemsPerPage":24,"currentPage":15,"totalPages":1046}}