{"status":true,"items":[{"modified":{"time":"2023-12-25T20:28:52.000Z"},"_id":"658982882f36c295ed5f3a0a","name":"Thiên Nhiên Hoang Dã Hawaii","slug":"thien-nhien-hoang-da-hawaii","origin_name":"Wild Hawaii","thumb_url":"thien-nhien-hoang-da-hawaii-thumb.jpg","poster_url":"thien-nhien-hoang-da-hawaii-poster.jpg","year":2014},{"modified":{"time":"2023-12-25T20:28:19.000Z"},"_id":"6589835c2f36c295ed5f3f4b","name":"Bảy Thế Giới, Một Hành Tinh","slug":"bay-the-gioi-mot-hanh-tinh","origin_name":"Seven Worlds, One Planet","thumb_url":"bay-the-gioi-mot-hanh-tinh-thumb.jpg","poster_url":"bay-the-gioi-mot-hanh-tinh-poster.jpg","year":2019},{"modified":{"time":"2023-12-25T19:58:48.000Z"},"_id":"65897c7e2f36c295ed5f2e1f","name":"Đêm Khó Quên","slug":"unforgotten-night-dem-kho-quen","origin_name":"Unforgotten Night","thumb_url":"unforgotten-night-dem-kho-quen-thumb.jpg","poster_url":"unforgotten-night-dem-kho-quen-poster.jpg","year":2023},{"modified":{"time":"2023-12-25T19:58:08.000Z"},"_id":"65897c602f36c295ed5f2ca8","name":"Tai Trái","slug":"tai-trai","origin_name":"The Left Ear","thumb_url":"tai-trai-thumb.jpg","poster_url":"tai-trai-poster.jpg","year":2023},{"modified":{"time":"2023-12-25T19:57:32.000Z"},"_id":"65897c372f36c295ed5f2a59","name":"Thế Giới Phỏng Sinh","slug":"the-gioi-phong-sinh","origin_name":"The Bionic Life","thumb_url":"the-gioi-phong-sinh-thumb.jpg","poster_url":"the-gioi-phong-sinh-poster.jpg","year":2023},{"modified":{"time":"2023-12-25T19:56:40.000Z"},"_id":"65897c082f36c295ed5f27f4","name":"Bí Mật Của Anh Ấy Và Cô Ấy","slug":"bi-mat-cua-anh-ay-va-co-ay","origin_name":"His and Her Secrets","thumb_url":"bi-mat-cua-anh-ay-va-co-ay-thumb.jpg","poster_url":"bi-mat-cua-anh-ay-va-co-ay-poster.jpg","year":2023},{"modified":{"time":"2023-12-25T19:45:36.000Z"},"_id":"65885731efed8b7739de63e0","name":"Lễ Tạ Ơn Kinh Hoàng","slug":"le-ta-on-kinh-hoang","origin_name":"Thanksgiving","thumb_url":"le-ta-on-kinh-hoang-thumb.jpg","poster_url":"le-ta-on-kinh-hoang-poster.jpg","year":2023},{"modified":{"time":"2023-12-25T18:26:51.000Z"},"_id":"6586599defed8b7739dbae07","name":"Quần Áo Mới Của Công Chúa","slug":"quan-ao-moi-cua-cong-chua","origin_name":"The Princess’s New Clothes","thumb_url":"quan-ao-moi-cua-cong-chua-thumb.jpg","poster_url":"quan-ao-moi-cua-cong-chua-poster.jpg","year":2023},{"modified":{"time":"2023-12-25T18:26:17.000Z"},"_id":"657af065efed8b7739a64905","name":"Hồng Nhan Lệnh","slug":"hong-nhan-lenh","origin_name":"Her Revenge","thumb_url":"hong-nhan-lenh-thumb.jpg","poster_url":"hong-nhan-lenh-poster.jpg","year":2023},{"modified":{"time":"2023-12-25T18:25:56.000Z"},"_id":"656f01feaa7d07ce5cb9e0c4","name":"Tình Yêu Mù Quáng","slug":"tinh-yeu-mu-quang-2023","origin_name":"Forever Love","thumb_url":"tinh-yeu-mu-quang-2023-thumb.jpg","poster_url":"tinh-yeu-mu-quang-2023-poster.jpg","year":2023},{"modified":{"time":"2023-12-25T18:25:34.000Z"},"_id":"6576b4d5efed8b773991bef9","name":"Yêu Đương Đi Trại Chủ","slug":"yeu-duong-di-trai-chu","origin_name":"Fall in Love Stockade","thumb_url":"yeu-duong-di-trai-chu-thumb.jpg","poster_url":"yeu-duong-di-trai-chu-poster.jpg","year":2023},{"modified":{"time":"2023-12-25T17:28:07.000Z"},"_id":"653d2a06fe8e2316c09ef867","name":"Oppa Xã Hội Đen Thân Yêu","slug":"oppa-xa-hoi-den-than-yeu","origin_name":"My Dear Gangster Oppa","thumb_url":"oppa-xa-hoi-den-than-yeu-thumb.jpg","poster_url":"oppa-xa-hoi-den-than-yeu-poster.jpg","year":2023},{"modified":{"time":"2023-12-25T17:26:50.000Z"},"_id":"6505f52425c3f47570c8fb41","name":"Đại Chúa Tể","slug":"dai-chua-te-2023","origin_name":"The Great Ruler","thumb_url":"dai-chua-te-2023-thumb.jpg","poster_url":"dai-chua-te-2023-poster.jpg","year":2023},{"modified":{"time":"2023-12-25T17:26:18.000Z"},"_id":"65210d28e2f0dc639fc74890","name":"Độ Không Tuyệt Đối","slug":"absolute-zero-do-khong-tuyet-doi","origin_name":"Absolute Zero","thumb_url":"absolute-zero-do-khong-tuyet-doi-thumb.jpg","poster_url":"absolute-zero-do-khong-tuyet-doi-poster.jpg","year":2023},{"modified":{"time":"2023-12-25T16:54:22.000Z"},"_id":"65217c12e2f0dc639fc7851d","name":"SPY x FAMILY (Phần 2)","slug":"spy-x-family-phan-2","origin_name":"SPY x FAMILY","thumb_url":"spy-x-family-phan-2-thumb.jpg","poster_url":"spy-x-family-phan-2-poster.jpg","year":2023},{"modified":{"time":"2023-12-25T16:54:07.000Z"},"_id":"656c8511aa7d07ce5cb4e571","name":"BoBoiBoy Galaxy (Phần 2)","slug":"boboiboy-galaxy-phan-2","origin_name":"BoBoiBoy Galaxy Season 2 || Boboiboy Galaxy Sori","thumb_url":"boboiboy-galaxy-phan-2-thumb.jpg","poster_url":"boboiboy-galaxy-phan-2-poster.jpg","year":2016},{"modified":{"time":"2023-12-25T16:47:20.000Z"},"_id":"6589394befed8b7739ded498","name":"Ma cà rồng trong gia đình ta","slug":"ma-ca-rong-trong-gia-dinh-ta","origin_name":"A Vampire in the Family","thumb_url":"ma-ca-rong-trong-gia-dinh-ta-thumb.jpg","poster_url":"ma-ca-rong-trong-gia-dinh-ta-poster.jpg","year":2023},{"modified":{"time":"2023-12-25T16:47:06.000Z"},"_id":"658938f92f36c295ed5e78e5","name":"Hộ sinh Hạc (Phần 2)","slug":"ho-sinh-hac-phan-2","origin_name":"Dr. Storks (Season 2)","thumb_url":"ho-sinh-hac-phan-2-thumb.jpg","poster_url":"ho-sinh-hac-phan-2-poster.jpg","year":2017},{"modified":{"time":"2023-12-25T16:46:30.000Z"},"_id":"658938bb2f36c295ed5e76d5","name":"Hộ sinh Hạc (Phần 1)","slug":"ho-sinh-hac-phan-1","origin_name":"Dr. Storks (Season 1)","thumb_url":"ho-sinh-hac-phan-1-thumb.jpg","poster_url":"ho-sinh-hac-phan-1-poster.jpg","year":2015},{"modified":{"time":"2023-12-25T16:45:46.000Z"},"_id":"653a15e0aab68118a3b68e6b","name":"Dược sư tự sự","slug":"duoc-su-tu-su","origin_name":"The Apothecary Diaries","thumb_url":"duoc-su-tu-su-thumb.jpg","poster_url":"duoc-su-tu-su-poster.jpg","year":2023},{"modified":{"time":"2023-12-25T16:39:38.000Z"},"_id":"62a1a4ae7a956fb5db030134","name":"Thần Ấn Vương Toạ","origin_name":"Throne of Seal","thumb_url":"than-an-vuong-toa-thumb.jpg","poster_url":"than-an-vuong-toa-poster.jpg","slug":"than-an-vuong-toa","year":2022},{"modified":{"time":"2023-12-25T15:41:29.000Z"},"_id":"629ec7157a956fb5dbfeeb7b","name":"Đấu La Đại Lục","origin_name":"Soul Land","thumb_url":"dau-la-dai-luc-thumb.jpg","poster_url":"dau-la-dai-luc-poster.jpg","slug":"dau-la-dai-luc","year":2018},{"modified":{"time":"2023-12-25T15:39:56.000Z"},"_id":"65687f38aa7d07ce5caccb0f","name":"Rất Nhớ, Rất Nhớ Anh","slug":"rat-nho-rat-nho-anh","origin_name":"Love Me, Love My Voice","thumb_url":"rat-nho-rat-nho-anh-thumb.jpg","poster_url":"rat-nho-rat-nho-anh-poster.jpg","year":2023},{"modified":{"time":"2023-12-24T22:06:16.000Z"},"_id":"65880ff1efed8b7739de1163","name":"Foursome","slug":"foursome","origin_name":"Foursome","thumb_url":"foursome-thumb.jpg","poster_url":"foursome-poster.jpg","year":2023}],"pathImage":"https://img.ophim10.cc/uploads/movies/","pagination":{"totalItems":25087,"totalItemsPerPage":24,"currentPage":6,"totalPages":1046}}