{"status":true,"items":[{"modified":{"time":"2023-09-27T20:43:54.000Z"},"_id":"6514319760ad693b7c99034e","name":"Mùa Xuân Hoa Nở","slug":"mua-xuan-hoa-no","origin_name":"Mùa Xuân Hoa Nở","thumb_url":"mua-xuan-hoa-no-thumb.jpg","poster_url":"mua-xuan-hoa-no-poster.jpg","year":2022},{"modified":{"time":"2023-09-27T20:38:33.000Z"},"_id":"651430571e9ad2fe0c3f08d6","name":"Đi Nào, Cún Con!","slug":"di-nao-cun-con","origin_name":"Đi Nào, Cún Con!","thumb_url":"di-nao-cun-con-thumb.jpg","poster_url":"di-nao-cun-con-poster.jpg","year":2022},{"modified":{"time":"2023-09-27T20:34:15.000Z"},"_id":"65142f55aab68118a39ff70e","name":"YES or NO S2 ","slug":"yes-or-no-s2","origin_name":"YES or NO S2 ","thumb_url":"yes-or-no-s2-thumb.jpg","poster_url":"yes-or-no-s2-poster.jpg","year":2022},{"modified":{"time":"2023-09-27T20:30:49.000Z"},"_id":"65142e86e2f0dc639fbf86f2","name":"Nhân Viên Mới","slug":"nhan-vien-moi","origin_name":"Nhân Viên Mới","thumb_url":"nhan-vien-moi-thumb.jpg","poster_url":"nhan-vien-moi-poster.jpg","year":2022},{"modified":{"time":"2023-09-27T19:37:40.000Z"},"_id":"650b1487e2f0dc639fba41bf","name":"Chuyện Tốt Thành Đôi","slug":"chuyen-tot-thanh-doi","origin_name":"Alliance, Hao Shi Cheng Shuang","thumb_url":"chuyen-tot-thanh-doi-thumb.jpg","poster_url":"chuyen-tot-thanh-doi-poster.jpg","year":2023},{"modified":{"time":"2023-09-27T17:35:19.000Z"},"_id":"6514056725c3f47570d0ff92","name":"Câu chuyện kì diệu về Henry Sugar","slug":"cau-chuyen-ki-dieu-ve-henry-sugar","origin_name":"The Wonderful Story of Henry Sugar","thumb_url":"cau-chuyen-ki-dieu-ve-henry-sugar-thumb.jpg","poster_url":"cau-chuyen-ki-dieu-ve-henry-sugar-poster.jpg","year":2023},{"modified":{"time":"2023-09-27T17:34:34.000Z"},"_id":"64d3563a900f1649a91a3234","name":"Hành Tinh Kỳ Lạ","slug":"hanh-tinh-ky-la","origin_name":"Strange Planet","thumb_url":"hanh-tinh-ky-la-thumb.jpg","poster_url":"hanh-tinh-ky-la-poster.jpg","year":2023},{"modified":{"time":"2023-09-27T14:43:15.000Z"},"_id":"64a45f48621029c05fe77cd1","name":"Cô Bạn Tôi Thầm Thích Lại Quên Mang Kính Rồi","slug":"co-ban-toi-tham-thich-lai-quen-mang-kinh-roi","origin_name":"Suki na Ko ga Megane wo Wasureta","thumb_url":"co-ban-toi-tham-thich-lai-quen-mang-kinh-roi-thumb.jpg","poster_url":"co-ban-toi-tham-thich-lai-quen-mang-kinh-roi-poster.jpg","year":2023},{"modified":{"time":"2023-09-27T11:19:34.000Z"},"_id":"6513ad56aab68118a39f99ce","name":"Sniper: G.R.I.T. - Global Response & Intelligence Team","slug":"sniper-grit-global-response-and-intelligence-team","origin_name":"Sniper: G.R.I.T. - Global Response & Intelligence Team","thumb_url":"sniper-grit-global-response-and-intelligence-team-thumb.jpg","poster_url":"sniper-grit-global-response-and-intelligence-team-poster.jpg","year":2023},{"modified":{"time":"2023-09-27T11:18:53.000Z"},"_id":"6513ad2de2f0dc639fbf2598","name":"Borders of Love","slug":"borders-of-love","origin_name":"Borders of Love","thumb_url":"borders-of-love-thumb.jpg","poster_url":"borders-of-love-poster.jpg","year":2022},{"modified":{"time":"2023-09-27T10:39:05.000Z"},"_id":"623b087453ad6de2a9934aeb","name":"Women on the Verge of a Nervous Breakdown","origin_name":"Women on the Verge of a Nervous Breakdown","thumb_url":"women-on-the-verge-of-a-nervous-breakdown-thumb.jpg","slug":"women-on-the-verge-of-a-nervous-breakdown","year":1988,"poster_url":"women-on-the-verge-of-a-nervous-breakdown-poster.jpg"},{"modified":{"time":"2023-09-27T10:38:45.000Z"},"_id":"623b086953ad6de2a9934ad7","name":"War of the Worlds","origin_name":"War of the Worlds","thumb_url":"war-of-the-worlds-thumb.jpg","slug":"war-of-the-worlds","year":2019,"poster_url":"war-of-the-worlds-poster.jpg"},{"modified":{"time":"2023-09-27T10:38:04.000Z"},"_id":"623b085e53ad6de2a9934ac6","name":"Vợ Chồng Siêu Quậy","origin_name":"Fun with Dick and Jane","thumb_url":"vo-chong-sieu-quay-thumb.jpg","slug":"vo-chong-sieu-quay","year":2005,"poster_url":"vo-chong-sieu-quay-poster.jpg"},{"modified":{"time":"2023-09-27T10:37:43.000Z"},"_id":"623b085353ad6de2a9934ab1","name":"Virgin Stripped Bare by Her Bachelors","origin_name":"Virgin Stripped Bare by Her Bachelors","thumb_url":"virgin-stripped-bare-by-her-bachelors-thumb.jpg","slug":"virgin-stripped-bare-by-her-bachelors","year":2000,"poster_url":"virgin-stripped-bare-by-her-bachelors-poster.jpg"},{"modified":{"time":"2023-09-27T10:37:22.000Z"},"_id":"623b081c53ad6de2a9934a8a","name":"Upgrade","origin_name":"Upgrade","thumb_url":"upgrade-thumb.jpg","slug":"upgrade","year":2018,"poster_url":"upgrade-poster.jpg"},{"modified":{"time":"2023-09-27T10:37:02.000Z"},"_id":"623b080f53ad6de2a9934a75","name":"Under the Skin","origin_name":"Under the Skin","thumb_url":"under-the-skin-thumb.jpg","slug":"under-the-skin","year":2013,"poster_url":"under-the-skin-poster.jpg"},{"modified":{"time":"2023-09-27T10:36:45.000Z"},"_id":"623b07f753ad6de2a9934a4f","name":"Traffik","origin_name":"Traffik","thumb_url":"traffik-thumb.jpg","slug":"traffik","year":2018,"poster_url":"traffik-poster.jpg"},{"modified":{"time":"2023-09-27T10:36:29.000Z"},"_id":"623b07ee53ad6de2a9934a33","name":"Tomb Raider: Huyền Thoại Bắt Đầu","origin_name":"Tomb Raider","thumb_url":"tomb-raider-huyen-thoai-bat-dau-thumb.jpg","slug":"tomb-raider-huyen-thoai-bat-dau","year":2018,"poster_url":"tomb-raider-huyen-thoai-bat-dau-poster.jpg"},{"modified":{"time":"2023-09-27T10:36:04.000Z"},"_id":"623b07e353ad6de2a9934a1d","name":"Tôi Là Sam","origin_name":"I Am Sam","thumb_url":"toi-la-sam-thumb.jpg","slug":"toi-la-sam","year":2001,"poster_url":"toi-la-sam-poster.jpg"},{"modified":{"time":"2023-09-27T10:35:46.000Z"},"_id":"623b07d953ad6de2a99349ff","name":"Tình Nguoi Duyên Ma","origin_name":"Pee Mak","thumb_url":"tinh-nguoi-duyen-ma-thumb.jpg","slug":"tinh-nguoi-duyen-ma","year":2013,"poster_url":"tinh-nguoi-duyen-ma-poster.jpg"},{"modified":{"time":"2023-09-27T10:35:10.000Z"},"_id":"623b09d953ad6de2a9934d12","name":"E.T: Sinh vật Ngoài Hành Tinh","origin_name":"E.T. the Extra-Terrestrial","thumb_url":"et-sinh-vat-ngoai-hanh-tinh-thumb.jpg","slug":"et-sinh-vat-ngoai-hanh-tinh","year":1982,"poster_url":"et-sinh-vat-ngoai-hanh-tinh-poster.jpg"},{"modified":{"time":"2023-09-27T10:34:55.000Z"},"_id":"623b09c253ad6de2a9934ce6","name":"Desert Flower","origin_name":"Desert Flower","thumb_url":"desert-flower-thumb.jpg","slug":"desert-flower","year":2009,"poster_url":"desert-flower-poster.jpg"},{"modified":{"time":"2023-09-27T10:34:31.000Z"},"_id":"623b09ad53ad6de2a9934ccd","name":"Dead Poets Society","origin_name":"Dead Poets Society","thumb_url":"dead-poets-society-thumb.jpg","slug":"dead-poets-society","year":1989,"poster_url":"dead-poets-society-poster.jpg"},{"modified":{"time":"2023-09-27T10:34:06.000Z"},"_id":"623b099053ad6de2a9934c8b","name":"Cuoc Chien Cua Charlie Wilson","origin_name":"Charlie Wilson's War","thumb_url":"cuoc-chien-cua-charlie-wilson-thumb.jpg","slug":"cuoc-chien-cua-charlie-wilson","year":2007,"poster_url":"cuoc-chien-cua-charlie-wilson-poster.jpg"}],"pathImage":"https://img.ophim9.cc/uploads/movies/","pagination":{"totalItems":24970,"totalItemsPerPage":24,"currentPage":120,"totalPages":1041}}