{"status":true,"items":[{"modified":{"time":"2024-01-15T18:04:54.000Z"},"_id":"62a1a4ae7a956fb5db030134","name":"Thần Ấn Vương Toạ","origin_name":"Throne of Seal","thumb_url":"than-an-vuong-toa-thumb.jpg","poster_url":"than-an-vuong-toa-poster.jpg","slug":"than-an-vuong-toa","year":2022},{"modified":{"time":"2024-01-15T18:04:35.000Z"},"_id":"649351a09f4442ce4d284708","name":"Già Thiên","slug":"gia-thien","origin_name":"Shrouding the Heavens","thumb_url":"gia-thien-thumb.jpg","poster_url":"gia-thien-poster.jpg","year":2023},{"modified":{"time":"2024-01-15T18:04:13.000Z"},"_id":"657b00162f36c295ed264e40","name":"Trò Chơi Sống Còn","slug":"tro-choi-song-con","origin_name":"Fatal Rule","thumb_url":"tro-choi-song-con-thumb.jpg","poster_url":"tro-choi-song-con-poster.jpg","year":2023},{"modified":{"time":"2024-01-15T18:03:52.000Z"},"_id":"6274deed3a2c0c6289bdb9a0","name":"Thần Võ Thiên Tôn","origin_name":"The  Legend of  Sky Lord","thumb_url":"than-vo-thien-ton-thumb.jpg","slug":"than-vo-thien-ton","year":2020,"poster_url":"than-vo-thien-ton-poster.jpg"},{"modified":{"time":"2024-01-15T18:03:35.000Z"},"_id":"6589510fefed8b7739df1bc0","name":"Pit Babe The Series","slug":"pit-babe-the-series","origin_name":"Pit Babe The Series","thumb_url":"pit-babe-the-series-thumb.jpg","poster_url":"pit-babe-the-series-poster.jpg","year":2023},{"modified":{"time":"2024-01-15T18:03:19.000Z"},"_id":"65282ff525c3f47570dd21e5","name":"Nghịch Thiên Tà Thần","slug":"nghich-thien-ta-than","origin_name":"Against the Gods","thumb_url":"nghich-thien-ta-than-thumb.jpg","poster_url":"nghich-thien-ta-than-poster.jpg","year":2023},{"modified":{"time":"2024-01-15T18:03:01.000Z"},"_id":"658950652f36c295ed5ec0f4","name":"For Him","slug":"for-him","origin_name":"For Him","thumb_url":"for-him-thumb.jpg","poster_url":"for-him-poster.jpg","year":2023},{"modified":{"time":"2024-01-15T18:02:46.000Z"},"_id":"65895034efed8b7739df15a9","name":"Dead Friend Forever","slug":"dead-friend-forever","origin_name":"Dead Friend Forever - DFF: Uncovered Version","thumb_url":"dead-friend-forever-thumb.jpg","poster_url":"dead-friend-forever-poster.jpg","year":2023},{"modified":{"time":"2024-01-15T18:02:21.000Z"},"_id":"65282f8460ad693b7ca4fd9f","name":"Có Thuốc Trị Mùa 2","slug":"co-thuoc-tri-mua-2","origin_name":"Are You OK? Season 2","thumb_url":"co-thuoc-tri-mua-2-thumb.jpg","poster_url":"co-thuoc-tri-mua-2-poster.jpg","year":2023},{"modified":{"time":"2024-01-15T18:01:46.000Z"},"_id":"659a4fda31d8a2b99e927cb4","name":"Mashle: Ma thuật và Cơ bắp (Phần 2)","slug":"mashle-ma-thuat-va-co-bap-phan-2","origin_name":"MASHLE: MAGIC AND MUSCLES Season 2","thumb_url":"mashle-ma-thuat-va-co-bap-phan-2-thumb.jpg","poster_url":"mashle-ma-thuat-va-co-bap-phan-2-poster.jpg","year":2024},{"modified":{"time":"2024-01-15T17:41:58.000Z"},"_id":"659e6d8a7074f826ccc4d101","name":"Đất Đen Tĩnh Lặng","slug":"dat-den-tinh-lang","origin_name":"Frozen Surface","thumb_url":"dat-den-tinh-lang-thumb.jpg","poster_url":"dat-den-tinh-lang-poster.jpg","year":2024},{"modified":{"time":"2024-01-15T17:33:30.000Z"},"_id":"634b3ed72805d71a492fe52a","name":"Chim Bói Cá","origin_name":"Yali Çapkini","thumb_url":"chim-boi-ca-thumb.jpg","poster_url":"chim-boi-ca-poster.jpg","slug":"chim-boi-ca","year":2022},{"modified":{"time":"2024-01-15T17:24:06.000Z"},"_id":"65488bb4aa7d07ce5c7262c7","name":"Phản Bội","slug":"phan-boi-tnk","origin_name":"Aldatmak","thumb_url":"phan-boi-tnk-thumb.jpg","poster_url":"phan-boi-tnk-poster.jpg","year":2022},{"modified":{"time":"2024-01-15T17:23:52.000Z"},"_id":"655af363aa7d07ce5c940435","name":"Cô Dâu Istanbul","slug":"co-dau-instabul","origin_name":"Istanbullu Gelin","thumb_url":"co-dau-instabul-thumb.jpg","poster_url":"co-dau-instabul-poster.jpg","year":2017},{"modified":{"time":"2024-01-15T16:47:02.000Z"},"_id":"65a4fd687074f826ccd3179d","name":"Thực Tập Sinh Trong Trái Tim Tôi","slug":"thuc-tap-sinh-trong-trai-tim-toi","origin_name":"Intern in my heart","thumb_url":"thuc-tap-sinh-trong-trai-tim-toi-thumb.jpg","poster_url":"thuc-tap-sinh-trong-trai-tim-toi-poster.jpg","year":2024},{"modified":{"time":"2024-01-15T15:33:22.000Z"},"_id":"65548909aa7d07ce5c87ad65","name":"Nhạc Trưởng Maestra: Sợi Dây Chân Lý","slug":"nhac-truong-maestra-soi-day-chan-ly","origin_name":"Maestra: Strings of Truth","thumb_url":"nhac-truong-maestra-soi-day-chan-ly-thumb.jpg","poster_url":"nhac-truong-maestra-soi-day-chan-ly-poster.jpg","year":2023},{"modified":{"time":"2024-01-15T15:08:25.000Z"},"_id":"659ac8037074f826ccbfef7d","name":"Bị đuổi khỏi tổ đội anh hùng, tôi nhắm đến một cuộc sống nhàn nhã ở vùng biên cương Phần 2","slug":"bi-duoi-khoi-to-doi-anh-hung-toi-nham-den-mot-cuoc-song-nhan-nha-o-vung-bien-cuong-phan-2","origin_name":"真の仲間じゃないと勇者のパーティーを追い出されたので、辺境でスローライフすることにしました 第2期","thumb_url":"bi-duoi-khoi-to-doi-anh-hung-toi-nham-den-mot-cuoc-song-nhan-nha-o-vung-bien-cuong-phan-2-thumb.jpg","poster_url":"bi-duoi-khoi-to-doi-anh-hung-toi-nham-den-mot-cuoc-song-nhan-nha-o-vung-bien-cuong-phan-2-poster.jpg","year":2024},{"modified":{"time":"2024-01-15T15:08:03.000Z"},"_id":"657ea057efed8b7739b93f78","name":"Cuộc Sống Thường Ngày Của Tiên Vương (Phần 4)","slug":"cuoc-song-thuong-ngay-cua-tien-vuong-phan-4","origin_name":"The Daily Life of the Immortal King Season 4","thumb_url":"cuoc-song-thuong-ngay-cua-tien-vuong-phan-4-thumb.jpg","poster_url":"cuoc-song-thuong-ngay-cua-tien-vuong-phan-4-poster.jpg","year":2023},{"modified":{"time":"2024-01-15T13:32:58.000Z"},"_id":"65a0f40d31d8a2b99ea15a3d","name":"Sonic Prime (Phần 3)","slug":"sonic-prime-phan-3","origin_name":"Sonic Prime Season 3","thumb_url":"sonic-prime-phan-3-thumb.jpg","poster_url":"sonic-prime-phan-3-poster.jpg","year":2024},{"modified":{"time":"2024-01-15T11:34:58.000Z"},"_id":"622602d0eb35da19972dcca9","name":"Núi lửa Dante","origin_name":"Dante Peak","thumb_url":"nui-lua-dante-thumb.jpg","slug":"nui-lua-dante","year":1997,"poster_url":"nui-lua-dante-poster.jpg"},{"modified":{"time":"2024-01-15T11:34:44.000Z"},"_id":"622601d1eb35da19972dcb01","name":"Thuê chung một giường","origin_name":"Day and Night","thumb_url":"thue-chung-mot-giuong-thumb.jpg","slug":"thue-chung-mot-giuong","year":2016,"poster_url":"thue-chung-mot-giuong-poster.jpg"},{"modified":{"time":"2024-01-15T11:34:32.000Z"},"_id":"622601beeb35da19972dcad6","name":"Đại tác chiến yêu đương","origin_name":"War of Love","thumb_url":"dai-tac-chien-yeu-duong-thumb.jpg","slug":"dai-tac-chien-yeu-duong","year":2017,"poster_url":"dai-tac-chien-yeu-duong-poster.jpg"},{"modified":{"time":"2024-01-15T11:34:19.000Z"},"_id":"622601bbeb35da19972dcaca","name":"Tiện thần Tam thiếu gia 2","origin_name":"The Third Childe 2","thumb_url":"tien-than-tam-thieu-gia-2-thumb.jpg","slug":"tien-than-tam-thieu-gia-2","year":2017,"poster_url":"tien-than-tam-thieu-gia-2-poster.jpg"},{"modified":{"time":"2024-01-15T11:34:08.000Z"},"_id":"622601aceb35da19972dcab4","name":"Tim đập trí mạng","origin_name":"Heart Transplant","thumb_url":"tim-dap-tri-mang-thumb.jpg","slug":"tim-dap-tri-mang","year":2018,"poster_url":"tim-dap-tri-mang-poster.jpg"}],"pathImage":"https://img.ophim10.cc/uploads/movies/","pagination":{"totalItems":25189,"totalItemsPerPage":24,"currentPage":2,"totalPages":1050}}