{"status":true,"items":[{"modified":{"time":"2023-12-16T10:13:09.000Z"},"_id":"6227610ceb35da19972dffb7","name":"Tay đua siêu phàm","origin_name":"Burn Out","thumb_url":"tay-dua-sieu-pham-thumb.jpg","slug":"tay-dua-sieu-pham","year":2017,"poster_url":"tay-dua-sieu-pham-poster.jpg"},{"modified":{"time":"2023-12-16T10:12:53.000Z"},"_id":"622760c5eb35da19972dff44","name":"Kẻ trộm siêu thị","origin_name":"Shoplifters","thumb_url":"ke-trom-sieu-thi-thumb.jpg","slug":"ke-trom-sieu-thi","year":2018,"poster_url":"ke-trom-sieu-thi-poster.jpg"},{"modified":{"time":"2023-12-16T10:12:40.000Z"},"_id":"622760a8eb35da19972dfefa","name":"Mục tiêu khó diệt","origin_name":"Hard Target","thumb_url":"muc-tieu-kho-diet-thumb.jpg","slug":"muc-tieu-kho-diet","year":1993,"poster_url":"muc-tieu-kho-diet-poster.jpg"},{"modified":{"time":"2023-12-16T10:12:28.000Z"},"_id":"62276070eb35da19972dfe8f","name":"Ông hoàng thời trang","origin_name":"Fashion King","thumb_url":"ong-hoang-thoi-trang-thumb.jpg","slug":"ong-hoang-thoi-trang","year":2014,"poster_url":"ong-hoang-thoi-trang-poster.jpg"},{"modified":{"time":"2023-12-16T10:12:11.000Z"},"_id":"62275feceb35da19972dfe10","name":"Món quà bí ẩn","origin_name":"Good Sam","thumb_url":"mon-qua-bi-an-thumb.jpg","slug":"mon-qua-bi-an","year":2019,"poster_url":"mon-qua-bi-an-poster.jpg"},{"modified":{"time":"2023-12-16T10:11:58.000Z"},"_id":"62275fcbeb35da19972dfdbe","name":"Tam đại tặc vương","origin_name":"Trivisa","thumb_url":"tam-dai-tac-vuong-thumb.jpg","slug":"tam-dai-tac-vuong","year":2016,"poster_url":"tam-dai-tac-vuong-poster.jpg"},{"modified":{"time":"2023-12-16T10:11:43.000Z"},"_id":"62275fb2eb35da19972dfdb0","name":"Tốc độ nguy hiểm","origin_name":"Maximum Risk","thumb_url":"toc-do-nguy-hiem-thumb.jpg","slug":"toc-do-nguy-hiem","year":1996,"poster_url":"toc-do-nguy-hiem-poster.jpg"},{"modified":{"time":"2023-12-16T10:11:30.000Z"},"_id":"62275f92eb35da19972dfd6f","name":"Cú click huyền bí","origin_name":"Click","thumb_url":"cu-click-huyen-bi-thumb.jpg","slug":"cu-click-huyen-bi","year":2006,"poster_url":"cu-click-huyen-bi-poster.jpg"},{"modified":{"time":"2023-12-16T10:10:57.000Z"},"_id":"62275f65eb35da19972dfd1b","name":"Những gã trai hư 2","origin_name":"Bad Boys II","thumb_url":"nhung-ga-trai-hu-2-thumb.jpg","slug":"nhung-ga-trai-hu-2","year":2003,"poster_url":"nhung-ga-trai-hu-2-poster.jpg"},{"modified":{"time":"2023-12-16T10:10:06.000Z"},"_id":"657047f0efed8b773985cc34","name":"Thanh Tước Thành Hoàng","slug":"thanh-tuoc-thanh-hoang","origin_name":"Rising Feather","thumb_url":"thanh-tuoc-thanh-hoang-thumb.jpg","poster_url":"thanh-tuoc-thanh-hoang-poster.jpg","year":2023},{"modified":{"time":"2023-12-16T00:21:47.000Z"},"_id":"657c60bdefed8b7739a9e5e8","name":"Godzilla Minus One","slug":"godzilla-minus-one","origin_name":"Godzilla Minus One","thumb_url":"godzilla-minus-one-thumb.jpg","poster_url":"godzilla-minus-one-poster.jpg","year":2023},{"modified":{"time":"2023-12-15T23:19:39.000Z"},"_id":"65671f3403f63c57cbb7c1c2","name":"Nhất Niệm Quan Sơn","slug":"nhat-niem-quan-son","origin_name":"A Journey to Love","thumb_url":"nhat-niem-quan-son-thumb.jpg","poster_url":"nhat-niem-quan-son-poster.jpg","year":2023},{"modified":{"time":"2023-12-15T21:51:53.000Z"},"_id":"64a6e8ad621029c05fe8271e","name":"Chú Thuật Hồi Chiến 2","slug":"chu-thuat-hoi-chien-2","origin_name":"Jujutsu Kaisen 2 || Sorcery Fight 2","thumb_url":"chu-thuat-hoi-chien-2-thumb.jpg","poster_url":"chu-thuat-hoi-chien-2-poster.jpg","year":2023},{"modified":{"time":"2023-12-15T21:50:56.000Z"},"_id":"6560ba40aa7d07ce5c9e582f","name":"Chàng Quỷ Của Tôi","slug":"chang-quy-cua-toi","origin_name":"My Demon","thumb_url":"chang-quy-cua-toi-thumb.jpg","poster_url":"chang-quy-cua-toi-poster.jpg","year":2023},{"modified":{"time":"2023-12-15T21:45:46.000Z"},"_id":"6560c68003f63c57cbac5f92","name":"Hợp Đồng Hôn Nhân","slug":"hop-dong-hon-nhan-cua-co-park","origin_name":"The Story of Park's Marriage Contract","thumb_url":"hop-dong-hon-nhan-cua-co-park-thumb.jpg","poster_url":"hop-dong-hon-nhan-cua-co-park-poster.jpg","year":2023},{"modified":{"time":"2023-12-15T21:10:11.000Z"},"_id":"657c4013efed8b7739a98317","name":"Hẹn Hò Với Ông Già Tuyết ","slug":"hen-ho-voi-ong-gia-tuyet","origin_name":"Dating Santa","thumb_url":"hen-ho-voi-ong-gia-tuyet-thumb.jpg","poster_url":"hen-ho-voi-ong-gia-tuyet-poster.jpg","year":2023},{"modified":{"time":"2023-12-15T21:04:53.000Z"},"_id":"6579355befed8b7739a25691","name":"Hoạ Mi","slug":"hoa-mi","origin_name":"Unshakable Faith","thumb_url":"hoa-mi-thumb.jpg","poster_url":"hoa-mi-poster.jpg","year":2023},{"modified":{"time":"2023-12-15T19:54:55.000Z"},"_id":"657c4c3cefed8b7739a9abde","name":"Bewitched","slug":"bewitched","origin_name":"Bewitched","thumb_url":"bewitched-thumb.jpg","poster_url":"bewitched-poster.jpg","year":1981},{"modified":{"time":"2023-12-15T19:48:16.000Z"},"_id":"657c4b0e2f36c295ed297aa9","name":"Kỳ Nghỉ Đáng Nhớ","slug":"ky-nghi-dang-nho","origin_name":"Bilitis","thumb_url":"ky-nghi-dang-nho-thumb.jpg","poster_url":"ky-nghi-dang-nho-poster.jpg","year":1977},{"modified":{"time":"2023-12-15T19:47:17.000Z"},"_id":"657c4ad3efed8b7739a9a1a4","name":"Black Magic 2","slug":"black-magic-2","origin_name":"Black Magic 2","thumb_url":"black-magic-2-thumb.jpg","poster_url":"black-magic-2-poster.jpg","year":1976},{"modified":{"time":"2023-12-15T19:42:46.000Z"},"_id":"657c49c52f36c295ed296fc1","name":"Đại Sự Kiện","slug":"dai-su-kien","origin_name":"Breaking News","thumb_url":"dai-su-kien-thumb.jpg","poster_url":"dai-su-kien-poster.jpg","year":2004},{"modified":{"time":"2023-12-15T19:41:55.000Z"},"_id":"657c4991efed8b7739a99749","name":"Gái Bar Nổi Loạn","slug":"gai-bar-noi-loan","origin_name":"Coyote Ugly","thumb_url":"gai-bar-noi-loan-thumb.jpg","poster_url":"gai-bar-noi-loan-poster.jpg","year":2000},{"modified":{"time":"2023-12-15T18:27:12.000Z"},"_id":"655489cb03f63c57cb95ad6f","name":"Trò Chơi Sinh Tử","slug":"deaths-game","origin_name":"Death's Game","thumb_url":"deaths-game-thumb.jpg","poster_url":"deaths-game-poster.jpg","year":2023},{"modified":{"time":"2023-12-15T18:05:44.000Z"},"_id":"657c1ef5efed8b7739a8f335","name":"Carol và ngày tận thế","slug":"carol-va-ngay-tan-the","origin_name":"Carol & the End of the World","thumb_url":"carol-va-ngay-tan-the-thumb.jpg","poster_url":"carol-va-ngay-tan-the-poster.jpg","year":2023}],"pathImage":"https://img.ophim9.cc/uploads/movies/","pagination":{"totalItems":24970,"totalItemsPerPage":24,"currentPage":3,"totalPages":1041}}