{"status":true,"items":[{"modified":{"time":"2023-12-09T15:06:25.000Z"},"_id":"6524db95e2f0dc639fc96acf","name":"Frieren - Pháp Sư Tiễn Táng","slug":"frieren-phap-su-tien-tang","origin_name":"Frieren: Beyond Journey's End","thumb_url":"frieren-phap-su-tien-tang-thumb.jpg","poster_url":"frieren-phap-su-tien-tang-poster.jpg","year":2023},{"modified":{"time":"2023-12-09T14:31:22.000Z"},"_id":"65435a8960ad693b7cb4ed3c","name":"BULLBUSTER","slug":"bullbuster","origin_name":"ブルバスター","thumb_url":"bullbuster-thumb.jpg","poster_url":"bullbuster-poster.jpg","year":2023},{"modified":{"time":"2023-12-09T14:28:58.000Z"},"_id":"6555dbc0aa7d07ce5c8a2e84","name":"Bốn Anh Em Của Gia Đình Yuzuki","slug":"bon-anh-em-cua-gia-dinh-yuzuki","origin_name":"The Yuzuki Family's Four Sons","thumb_url":"bon-anh-em-cua-gia-dinh-yuzuki-thumb.jpg","poster_url":"bon-anh-em-cua-gia-dinh-yuzuki-poster.jpg","year":2023},{"modified":{"time":"2023-12-09T14:25:30.000Z"},"_id":"6555d16103f63c57cb97efe9","name":"Nàng Tiểu Thư Và Chàng Vệ Sĩ","slug":"nang-tieu-thu-va-chang-ve-si","origin_name":"A Girl & Her Guard Dog","thumb_url":"nang-tieu-thu-va-chang-ve-si-thumb.jpg","poster_url":"nang-tieu-thu-va-chang-ve-si-poster.jpg","year":2023},{"modified":{"time":"2023-12-09T14:01:18.000Z"},"_id":"6545005803f63c57cb79a2fa","name":"Sự Trỗi Dậy Của Khiên Hiệp Sĩ (Phần 3)","slug":"su-troi-day-cua-khien-hiep-si-phan-3","origin_name":"The Rising of the Shield Hero Season 3","thumb_url":"su-troi-day-cua-khien-hiep-si-phan-3-thumb.jpg","poster_url":"su-troi-day-cua-khien-hiep-si-phan-3-poster.jpg","year":2023},{"modified":{"time":"2023-12-09T13:19:01.000Z"},"_id":"656720c4aa7d07ce5ca9e107","name":"Truyện Lạ Trường An","slug":"truyen-la-truong-an","origin_name":"The Man's Secret","thumb_url":"truyen-la-truong-an-thumb.jpg","poster_url":"truyen-la-truong-an-poster.jpg","year":2023},{"modified":{"time":"2023-12-09T10:42:15.000Z"},"_id":"62287f96eb35da19972e18b1","name":"Đạo hiệp tặc nghĩa","origin_name":"A Great Thief","thumb_url":"dao-hiep-tac-nghia-thumb.jpg","slug":"dao-hiep-tac-nghia","year":2018,"poster_url":"dao-hiep-tac-nghia-poster.jpg"},{"modified":{"time":"2023-12-09T10:42:01.000Z"},"_id":"62287f89eb35da19972e18a0","name":"Đêm tuyết hồn bay","origin_name":"Snow Fight","thumb_url":"dem-tuyet-hon-bay-thumb.jpg","slug":"dem-tuyet-hon-bay","year":2016,"poster_url":"dem-tuyet-hon-bay-poster.jpg"},{"modified":{"time":"2023-12-09T10:41:42.000Z"},"_id":"62287f7beb35da19972e188f","name":"Điện thoại không phải là bố","origin_name":"Put Down Your Phone","thumb_url":"dien-thoai-khong-phai-la-bo-thumb.jpg","slug":"dien-thoai-khong-phai-la-bo","year":2018,"poster_url":"dien-thoai-khong-phai-la-bo-poster.jpg"},{"modified":{"time":"2023-12-09T10:41:27.000Z"},"_id":"62287f6deb35da19972e187e","name":"Độ linh nhân 2","origin_name":"Soul Hunter 2","thumb_url":"do-linh-nhan-2-thumb.jpg","slug":"do-linh-nhan-2","year":2018,"poster_url":"do-linh-nhan-2-poster.jpg"},{"modified":{"time":"2023-12-09T10:41:16.000Z"},"_id":"62287f60eb35da19972e186d","name":"Đội lốt người yêu của hoa khôi","origin_name":"The Fake Boyfriend of the School Beauty","thumb_url":"doi-lot-nguoi-yeu-cua-hoa-khoi-thumb.jpg","slug":"doi-lot-nguoi-yeu-cua-hoa-khoi","year":2017,"poster_url":"doi-lot-nguoi-yeu-cua-hoa-khoi-poster.jpg"},{"modified":{"time":"2023-12-09T10:41:03.000Z"},"_id":"62287f54eb35da19972e185c","name":"Đối tác siêu cường","origin_name":"Superpower Partners","thumb_url":"doi-tac-sieu-cuong-thumb.jpg","slug":"doi-tac-sieu-cuong","year":2018,"poster_url":"doi-tac-sieu-cuong-poster.jpg"},{"modified":{"time":"2023-12-09T10:40:50.000Z"},"_id":"62287f48eb35da19972e184b","name":"Đội tự vệ trạch nam","origin_name":"Full Metal Duel","thumb_url":"doi-tu-ve-trach-nam-thumb.jpg","slug":"doi-tu-ve-trach-nam","year":2016,"poster_url":"doi-tu-ve-trach-nam-poster.jpg"},{"modified":{"time":"2023-12-09T10:40:36.000Z"},"_id":"62287f39eb35da19972e183a","name":"Giai thoại của thám tử","origin_name":"Detective&#x27;&#x27;s Anecdote","thumb_url":"giai-thoai-cua-tham-tu-thumb.jpg","slug":"giai-thoai-cua-tham-tu","year":2018,"poster_url":"giai-thoai-cua-tham-tu-poster.jpg"},{"modified":{"time":"2023-12-09T10:40:15.000Z"},"_id":"62287f2aeb35da19972e1829","name":"Hành động sói đen chi hiệp sĩ mini","origin_name":"Black Wolf Action: The Mini Man","thumb_url":"hanh-dong-soi-den-chi-hiep-si-mini-thumb.jpg","slug":"hanh-dong-soi-den-chi-hiep-si-mini","year":2018,"poster_url":"hanh-dong-soi-den-chi-hiep-si-mini-poster.jpg"},{"modified":{"time":"2023-12-09T10:40:03.000Z"},"_id":"62287f15eb35da19972e1818","name":"Hồ sơ đặc biệt","origin_name":"Special File","thumb_url":"ho-so-dac-biet-thumb.jpg","slug":"ho-so-dac-biet","year":2018,"poster_url":"ho-so-dac-biet-poster.jpg"},{"modified":{"time":"2023-12-09T10:39:47.000Z"},"_id":"62287f08eb35da19972e1807","name":"Hôn sự","origin_name":"Marriage","thumb_url":"hon-su-thumb.jpg","slug":"hon-su","year":2018,"poster_url":"hon-su-poster.jpg"},{"modified":{"time":"2023-12-09T10:39:31.000Z"},"_id":"62287efbeb35da19972e17f6","name":"Huyền thoại giấc mộng chi Sứ giả sói trời","origin_name":"The Wolf Herald","thumb_url":"huyen-thoai-giac-mong-chi-su-gia-soi-troi-thumb.jpg","slug":"huyen-thoai-giac-mong-chi-su-gia-soi-troi","year":2017,"poster_url":"huyen-thoai-giac-mong-chi-su-gia-soi-troi-poster.jpg"},{"modified":{"time":"2023-12-09T10:39:13.000Z"},"_id":"62287eebeb35da19972e17e5","name":"Kế hoạch của Lạc Khê","origin_name":"How to Train Your Girlfriend","thumb_url":"ke-hoach-cua-lac-khe-thumb.jpg","slug":"ke-hoach-cua-lac-khe","year":2018,"poster_url":"ke-hoach-cua-lac-khe-poster.jpg"},{"modified":{"time":"2023-12-09T10:39:01.000Z"},"_id":"62287edeeb35da19972e17d4","name":"Khoa khôi đổi mặt","origin_name":"Face Off","thumb_url":"khoa-khoi-doi-mat-thumb.jpg","slug":"khoa-khoi-doi-mat","year":2018,"poster_url":"khoa-khoi-doi-mat-poster.jpg"},{"modified":{"time":"2023-12-09T10:38:47.000Z"},"_id":"62287ecfeb35da19972e17c3","name":"Khởi nghĩa anh hùng của Bát Thị Vệ","origin_name":"Eight Guarders: The Rise of the Hero","thumb_url":"khoi-nghia-anh-hung-cua-bat-thi-ve-thumb.jpg","slug":"khoi-nghia-anh-hung-cua-bat-thi-ve","year":2017,"poster_url":"khoi-nghia-anh-hung-cua-bat-thi-ve-poster.jpg"},{"modified":{"time":"2023-12-09T10:38:29.000Z"},"_id":"62287ec1eb35da19972e17b2","name":"Lai Nhất đánh Ma Hoa","origin_name":"Give me a Dozen of Fried Dough Twist","thumb_url":"lai-nhat-danh-ma-hoa-thumb.jpg","slug":"lai-nhat-danh-ma-hoa","year":2017,"poster_url":"lai-nhat-danh-ma-hoa-poster.jpg"},{"modified":{"time":"2023-12-09T10:38:16.000Z"},"_id":"62287eb2eb35da19972e17a1","name":"Lưu hạ","origin_name":"The Summer Still On","thumb_url":"luu-ha-thumb.jpg","slug":"luu-ha","year":2017,"poster_url":"luu-ha-poster.jpg"},{"modified":{"time":"2023-12-09T10:38:00.000Z"},"_id":"62287ea5eb35da19972e1790","name":"Nằm vùng trong sòng bạc","origin_name":"The Undercover Hero","thumb_url":"nam-vung-trong-song-bac-thumb.jpg","slug":"nam-vung-trong-song-bac","year":2017,"poster_url":"nam-vung-trong-song-bac-poster.jpg"}],"pathImage":"https://img.ophim9.cc/uploads/movies/","pagination":{"totalItems":24978,"totalItemsPerPage":24,"currentPage":11,"totalPages":1041}}