{"status":true,"items":[{"modified":{"time":"2023-12-14T20:14:03.000Z"},"_id":"655620c503f63c57cb98c845","name":"Hoàng Quyền (Phần 6)","slug":"hoang-quyen-phan-6","origin_name":"The Crown Season 6","thumb_url":"hoang-quyen-phan-6-thumb.jpg","poster_url":"hoang-quyen-phan-6-poster.jpg","year":2023},{"modified":{"time":"2023-12-14T18:43:45.000Z"},"_id":"657aea712f36c295ed260e05","name":"What If...? (Phần 2)","slug":"what-if-phan-2","origin_name":"What If...? Season 2","thumb_url":"what-if-phan-2-thumb.jpg","poster_url":"what-if-phan-2-poster.jpg","year":2023},{"modified":{"time":"2023-12-14T18:38:33.000Z"},"_id":"64b11a8b953e2ecd7e0dda49","name":"Đấu Trường Sinh Tử: Khúc Hát Của Chim Ca & Rắn Độc","slug":"dau-truong-sinh-tu-khuc-hat-cua-chim-ca-and-ran-doc","origin_name":"The Hunger Games: The Ballad of Songbirds & Snakes","thumb_url":"dau-truong-sinh-tu-khuc-hat-cua-chim-ca-and-ran-doc-thumb.jpg","poster_url":"dau-truong-sinh-tu-khuc-hat-cua-chim-ca-and-ran-doc-poster.jpg","year":2023},{"modified":{"time":"2023-12-14T15:25:37.000Z"},"_id":"65797362efed8b7739a2fbc3","name":"Những Kỷ Nguyên Của Taylor Swift","slug":"nhung-ky-nguyen-cua-taylor-swift","origin_name":"TAYLOR SWIFT | THE ERAS TOUR","thumb_url":"nhung-ky-nguyen-cua-taylor-swift-thumb.jpg","poster_url":"nhung-ky-nguyen-cua-taylor-swift-poster.jpg","year":2023},{"modified":{"time":"2023-12-14T15:08:36.000Z"},"_id":"651d8f5eaab68118a3a556f4","name":"Ta Muốn Trở Thành Chúa Tể Bóng Tối (Phần 2)","slug":"ta-muon-tro-thanh-chua-te-bong-toi-phan-2","origin_name":"陰の実力者になりたくて！ 2nd season","thumb_url":"ta-muon-tro-thanh-chua-te-bong-toi-phan-2-thumb.jpg","poster_url":"ta-muon-tro-thanh-chua-te-bong-toi-phan-2-poster.jpg","year":2023},{"modified":{"time":"2023-12-14T14:58:44.000Z"},"_id":"651d90afe2f0dc639fc4f0da","name":"Tôi Nhặt Được 1 Cô Gái Và Biến Cô Ấy Trở Thành Người Hạnh Phúc Nhất Thế Gian!","slug":"toi-nhat-duoc-1-co-gai-va-bien-co-ay-tro-thanh-nguoi-hanh-phuc-nhat-the-gian","origin_name":"Tôi Nhặt Được 1 Cô Gái Và Biến Cô Ấy Trở Thành Người Hạnh Phúc Nhất Thế Gian!","thumb_url":"toi-nhat-duoc-1-co-gai-va-bien-co-ay-tro-thanh-nguoi-hanh-phuc-nhat-the-gian-thumb.jpg","poster_url":"toi-nhat-duoc-1-co-gai-va-bien-co-ay-tro-thanh-nguoi-hanh-phuc-nhat-the-gian-poster.jpg","year":2023},{"modified":{"time":"2023-12-14T14:58:24.000Z"},"_id":"65300d82e2f0dc639fd04f6c","name":"Thiên Quan Tứ Phúc Mùa 2","slug":"thien-quan-tu-phuc-mua-2","origin_name":"天官赐福 第二季","thumb_url":"thien-quan-tu-phuc-mua-2-thumb.jpg","poster_url":"thien-quan-tu-phuc-mua-2-poster.jpg","year":2023},{"modified":{"time":"2023-12-14T14:09:33.000Z"},"_id":"650c796d1e9ad2fe0c3a96a0","name":"Ba chị em (Phần 3)","slug":"ba-chi-em-phan-3","origin_name":"Uc Kiz Kardes","thumb_url":"ba-chi-em-phan-3-thumb.jpg","poster_url":"ba-chi-em-phan-3-poster.jpg","year":2022},{"modified":{"time":"2023-12-14T14:08:42.000Z"},"_id":"64fa921faab68118a3914f18","name":"Ngọc Bích","slug":"ngoc-bich","origin_name":"Safir","thumb_url":"ngoc-bich-thumb.jpg","poster_url":"ngoc-bich-poster.jpg","year":2023},{"modified":{"time":"2023-12-14T14:08:04.000Z"},"_id":"65488bb4aa7d07ce5c7262c7","name":"Phản Bội","slug":"phan-boi-tnk","origin_name":"Aldatmak","thumb_url":"phan-boi-tnk-thumb.jpg","poster_url":"phan-boi-tnk-poster.jpg","year":2022},{"modified":{"time":"2023-12-14T12:16:02.000Z"},"_id":"627e10a49e983cdfde34b7a8","name":"Aquaman và Vương Quốc Thất Lạc","origin_name":"Aquaman and the Lost Kingdom","thumb_url":"aquaman-va-vuong-quoc-that-lac-thumb.jpg","poster_url":"aquaman-va-vuong-quoc-that-lac-poster.jpg","slug":"aquaman-va-vuong-quoc-that-lac","year":2023},{"modified":{"time":"2023-12-14T11:17:50.000Z"},"_id":"656f01feaa7d07ce5cb9e0c4","name":"Tình Yêu Mù Quáng","slug":"tinh-yeu-mu-quang-2023","origin_name":"Forever Love","thumb_url":"tinh-yeu-mu-quang-2023-thumb.jpg","poster_url":"tinh-yeu-mu-quang-2023-poster.jpg","year":2023},{"modified":{"time":"2023-12-14T11:14:19.000Z"},"_id":"6524e01caab68118a3a9df15","name":"Ngày Tuyệt Vời Để Trở Thành Cún","slug":"ngay-tuyet-voi-de-tro-thanh-cun","origin_name":"A Good Day to be a Dog","thumb_url":"ngay-tuyet-voi-de-tro-thanh-cun-thumb.jpg","poster_url":"ngay-tuyet-voi-de-tro-thanh-cun-poster.jpg","year":2023},{"modified":{"time":"2023-12-14T10:49:18.000Z"},"_id":"6562f87903f63c57cbb04375","name":"Màn Đêm Kinh Hoàng","slug":"man-dem-kinh-hoang","origin_name":"Night Has Come","thumb_url":"man-dem-kinh-hoang-thumb.jpg","poster_url":"man-dem-kinh-hoang-poster.jpg","year":2023},{"modified":{"time":"2023-12-14T10:36:02.000Z"},"_id":"65797ffa2f36c295ed23010d","name":"Những Điệp Viên Hết Thời (Phần 3)","slug":"nhung-diep-vien-het-thoi-phan-3","origin_name":"Slow Horses Season 3","thumb_url":"nhung-diep-vien-het-thoi-phan-3-thumb.jpg","poster_url":"nhung-diep-vien-het-thoi-phan-3-poster.jpg","year":2023},{"modified":{"time":"2023-12-14T10:33:46.000Z"},"_id":"62287e76eb35da19972e175d","name":"Ô long thích khách","origin_name":"Assassin in Dream","thumb_url":"o-long-thich-khach-thumb.jpg","slug":"o-long-thich-khach","year":2018,"poster_url":"o-long-thich-khach-poster.jpg"},{"modified":{"time":"2023-12-14T10:33:35.000Z"},"_id":"62287e69eb35da19972e174c","name":"Quyết tâm của chó","origin_name":"A Dog&#x27;&#x27;s Life","thumb_url":"quyet-tam-cua-cho-thumb.jpg","slug":"quyet-tam-cua-cho","year":2016,"poster_url":"quyet-tam-cua-cho-poster.jpg"},{"modified":{"time":"2023-12-14T10:33:24.000Z"},"_id":"62287e5ceb35da19972e173b","name":"Rèn gan dạ","origin_name":"One Night","thumb_url":"ren-gan-da-thumb.jpg","slug":"ren-gan-da","year":2016,"poster_url":"ren-gan-da-poster.jpg"},{"modified":{"time":"2023-12-14T10:33:13.000Z"},"_id":"62287e4feb35da19972e172a","name":"Tâm xà sát cơ chi Phệ tâm thuật","origin_name":"The Truth","thumb_url":"tam-xa-sat-co-chi-phe-tam-thuat-thumb.jpg","slug":"tam-xa-sat-co-chi-phe-tam-thuat","year":2018,"poster_url":"tam-xa-sat-co-chi-phe-tam-thuat-poster.jpg"},{"modified":{"time":"2023-12-14T10:33:04.000Z"},"_id":"62287e41eb35da19972e1719","name":"Thiên niên kỷ","origin_name":"Millennium Dryad","thumb_url":"thien-nien-ky-thumb.jpg","slug":"thien-nien-ky","year":2018,"poster_url":"thien-nien-ky-poster.jpg"},{"modified":{"time":"2023-12-14T10:32:54.000Z"},"_id":"62287e34eb35da19972e1708","name":"Thiếu chiến tinh anh: Bảo tàng của ông nội","origin_name":"Grandpa&#x27;&#x27;s Treasure","thumb_url":"thieu-chien-tinh-anh-bao-tang-cua-ong-noi-thumb.jpg","slug":"thieu-chien-tinh-anh-bao-tang-cua-ong-noi","year":2018,"poster_url":"thieu-chien-tinh-anh-bao-tang-cua-ong-noi-poster.jpg"},{"modified":{"time":"2023-12-14T10:32:45.000Z"},"_id":"62287e25eb35da19972e16f7","name":"Tìm lại chính mình trong thế giới ảo","origin_name":"Find Yourself in Virtual World","thumb_url":"tim-lai-chinh-minh-trong-the-gioi-ao-thumb.jpg","slug":"tim-lai-chinh-minh-trong-the-gioi-ao","year":2018,"poster_url":"tim-lai-chinh-minh-trong-the-gioi-ao-poster.jpg"},{"modified":{"time":"2023-12-14T10:32:35.000Z"},"_id":"62287e16eb35da19972e16e6","name":"Tình yêu ô quan","origin_name":"Grid Love","thumb_url":"tinh-yeu-o-quan-thumb.jpg","slug":"tinh-yeu-o-quan","year":2018,"poster_url":"tinh-yeu-o-quan-poster.jpg"},{"modified":{"time":"2023-12-14T10:32:23.000Z"},"_id":"62287de6eb35da19972e16cc","name":"Trí Thâm truyện","origin_name":"A Monk's Madness","thumb_url":"tri-tham-truyen-thumb.jpg","slug":"tri-tham-truyen","year":2018,"poster_url":"tri-tham-truyen-poster.jpg"}],"pathImage":"https://img.ophim9.cc/uploads/movies/","pagination":{"totalItems":24970,"totalItemsPerPage":24,"currentPage":5,"totalPages":1041}}